<?xml version="1.0" encoding="utf-8"?>
<!-- Generator: Adobe Illustrator 22.0.0, SVG Export Plug-In . SVG Version: 6.00 Build 0)  -->
<svg version="1.1" id="Capa_1" xmlns="http://www.w3.org/2000/svg" xmlns:xlink="http://www.w3.org/1999/xlink" x="0px" y="0px"
	 viewBox="0 0 300 200" style="enable-background:new 0 0 300 200;" xml:space="preserve">
<style type="text/css">
	.st0{fill:none;}
	.st1{fill:#575656;}
</style>
<rect x="-188.9" y="-148" class="st0" width="645.5" height="419.7"/>
<path class="st1" d="M149.1,189.7c3.6-5.1,8.8-7.8,14.8-8.7c4.1-0.6,8.3-0.3,12.5-0.3c2.6,0,5-0.3,7.2-1.7c1.6-1.1,2.8-2.5,4.1-3.9
	c0.3-0.3,0.6-0.7,0.9-1c0.3-0.3,0.6-0.6,0.9-0.3c0.4,0.3,0.3,0.7,0.1,1.1c-0.3,0.9-1,1.6-1.6,2.2c-1.2,1.4-2.7,2.5-4.4,3.4
	c-1.5,0.7-2.5,2-3.4,3.4c-1.1,1.8-2.2,3.6-3.6,5.2c-3.2,4-7.4,6.5-12.1,8.2c-4.1,1.5-8.3,1.3-12.5,0.7c-1.6-0.3-3.2-0.6-4.8-0.6
	c-0.7,0-0.8-0.5-0.4-0.9c0.3-0.4,0.4-0.9,0.4-1.4C147.4,193.2,147.8,191.3,149.1,189.7z M172.7,185.1c-1.3-0.3-2.5-0.4-3.7-0.6
	c-3.2-0.5-6.4-1-9.7-0.7c-0.8,0.1-1.7-0.1-2.5,0.3c-1.8,0.9-3.6,2-5,3.5c-0.9,1-1.9,2-2.6,3.4c2-0.5,3.8-0.6,5.6-0.6
	c1.9,0,3.7,0,5.6-0.1c2.4-0.1,4.8-0.6,6.9-2C169.1,187.2,170.9,186.2,172.7,185.1z M171,187c-0.5,0.3-0.8,0.5-1.1,0.7
	c-2.5,1.6-5.1,3.1-7.8,4.4c-0.8,0.4-1.5,0.8-2.1,1.4c-1.2,1-2.2,2.2-3.6,3.1c-0.3,0.2-0.8,0.3-1,0.7C164,198.1,168.3,194.2,171,187z
	 M180.8,181.6c-0.2,0-0.3,0-0.4,0.1c-2.9,1-5.3,2.8-7.8,4.3c-0.2,0.1-0.3,0.4-0.5,0.7c-1,1.5-1.4,3.2-2.3,4.7c-0.9,1.4-2,2.4-3,3.8
	c3.2-1.3,6-3.1,8.4-5.6C177.4,187.3,179,184.5,180.8,181.6z M147.8,196c4.7-1.3,9.3-2.7,13.7-4.9c-4.1,0.2-8.2-0.4-12.2,0.6
	c-0.4,0.1-0.6,0.3-0.7,0.6C148.2,193.5,148,194.7,147.8,196z M159.6,183.2c0.7,0,1.4,0,2.1,0c2.7-0.1,5.3,0.5,7.9,0.9
	c3.2,0.4,5.9-0.4,8.7-2.3C171.8,181.7,165.6,181,159.6,183.2z M159.1,193.4c-3.2,1.2-6.4,2-9.6,3.2c1.8,0.1,3.4,1,5.2,0.3
	C156.6,196.1,158,195,159.1,193.4z"/>
<path class="st1" d="M15.6,4.8c6.7,1.5,11.6,5.5,15.2,11.2c2.4,3.9,3.9,8.2,5.7,12.5c1.1,2.6,2.5,4.9,4.9,6.5
	c1.8,1.2,3.7,1.8,5.7,2.4c0.5,0.2,1,0.3,1.4,0.4c0.4,0.1,0.8,0.3,0.7,0.8c-0.1,0.5-0.6,0.6-1,0.6c-1,0-2-0.3-2.9-0.6
	c-2-0.6-3.8-1.6-5.3-3c-1.4-1.2-3.1-1.7-4.9-1.9c-2.3-0.3-4.6-0.7-6.8-1.3c-5.4-1.5-9.8-4.6-13.6-8.7c-3.2-3.5-5-7.8-6.1-12.3
	C8.2,9.7,7.8,7.9,7.1,6.3c-0.3-0.7,0.1-1,0.7-0.8c0.6,0.1,1,0,1.6-0.1C11.4,4.6,13.5,4.3,15.6,4.8z M30.5,26.7
	c-0.2-1.4-0.7-2.7-1.1-4c-0.9-3.4-1.8-6.9-3.5-10.1c-0.4-0.8-0.7-1.8-1.4-2.4c-1.7-1.4-3.6-2.8-5.7-3.6c-1.4-0.5-2.8-1-4.5-1.1
	c1.3,1.8,2.3,3.6,3.1,5.4c0.8,1.9,1.6,3.8,2.5,5.6c1.2,2.4,2.7,4.5,5,6.1C26.9,23.9,28.7,25.3,30.5,26.7z M27.9,25.7
	c-0.5-0.4-0.8-0.6-1.1-0.8C24,23.2,21.4,21.2,19,19c-0.7-0.6-1.5-1.1-2.3-1.5c-1.6-0.8-3.2-1.3-4.7-2.3c-0.4-0.2-0.6-0.7-1.2-0.7
	C13.6,23.5,19.4,26.2,27.9,25.7z M37.5,33.3c-0.1-0.2-0.2-0.3-0.3-0.4c-2.2-2.5-5.1-4.1-7.8-6c-0.2-0.2-0.6-0.2-0.9-0.2
	c-1.9-0.4-3.9,0-5.8-0.3c-1.7-0.3-3.4-1-5.1-1.3c2.7,2.6,5.7,4.7,9.3,6C30.4,32.3,33.9,32.7,37.5,33.3z M8.7,6.2
	c3.4,4.2,6.8,8.2,10.8,11.7c-2-4-3.1-8.4-5.8-12c-0.3-0.3-0.5-0.5-0.9-0.4C11.4,5.5,10.1,5.9,8.7,6.2z M26.7,12.6
	c0.3,0.7,0.6,1.4,0.9,2.1c1.2,2.7,1.7,5.6,2.5,8.4c0.9,3.4,3,5.8,6.1,7.7C33.6,24.3,31.6,17.7,26.7,12.6z M16.3,16.6
	c-2.5-2.7-4.8-5.6-7.4-8.3c0.7,1.8,0.5,3.9,2,5.4C12.4,15.1,14.2,16,16.3,16.6z"/>
<path class="st0" d="M456.6,271.8h-645.5V-148h645.5V271.8z"/>
<path class="st1" d="M128.4,97.6c0.1,4.9-1.8,8.9-5.2,12.3c-2.3,2.3-5.1,4.1-7.7,6c-1.6,1.2-3,2.5-3.7,4.5c-0.5,1.4-0.6,2.9-0.7,4.3
	c0,0.4,0,0.7-0.1,1.1c0,0.3-0.1,0.6-0.4,0.6c-0.4,0-0.5-0.3-0.6-0.6c-0.2-0.7-0.1-1.4-0.1-2.1c0.1-1.5,0.5-2.9,1.2-4.2
	c0.6-1.2,0.6-2.4,0.5-3.7c-0.2-1.6-0.3-3.3-0.2-4.9c0.1-4,1.5-7.5,3.7-10.8c1.9-2.8,4.6-4.7,7.6-6.3c1.1-0.6,2.3-1.1,3.3-1.9
	c0.5-0.3,0.7-0.1,0.7,0.3c0,0.4,0.2,0.7,0.4,1C127.9,94.7,128.4,96,128.4,97.6z M115.7,111.5c1-0.4,1.7-0.9,2.6-1.4
	c2.2-1.2,4.5-2.4,6.4-4.1c0.5-0.4,1.1-0.8,1.4-1.4c0.7-1.4,1.3-2.9,1.5-4.5c0.1-1,0.2-2.1,0-3.3c-1,1.2-2.1,2.2-3.2,3
	c-1.2,0.9-2.4,1.7-3.5,2.7c-1.5,1.2-2.7,2.6-3.4,4.4C117,108.5,116.4,110,115.7,111.5z M115.9,109.5c0.2-0.4,0.3-0.7,0.4-0.9
	c0.8-2.2,1.7-4.3,2.8-6.3c0.3-0.6,0.5-1.2,0.7-1.9c0.3-1.2,0.3-2.4,0.8-3.6c0.1-0.3,0.3-0.5,0.3-0.9
	C115.1,99.4,114.2,103.8,115.9,109.5z M112.3,117.5c0.1-0.1,0.2-0.2,0.2-0.2c1.3-1.9,2-4.2,2.9-6.3c0.1-0.2,0-0.4,0-0.6
	c0-1.4-0.7-2.7-0.8-4c-0.1-1.2,0.1-2.5,0.1-3.7c-1.4,2.3-2.3,4.7-2.6,7.4C111.8,112.4,112.1,114.9,112.3,117.5z M126.3,93.1
	c-2.3,3-4.5,6.1-6.3,9.4c2.5-2,5.3-3.6,7.4-6.1c0.2-0.2,0.2-0.4,0.1-0.7C127.2,94.8,126.7,94,126.3,93.1z M124.9,106.5
	c-0.4,0.3-0.9,0.7-1.3,1c-1.6,1.3-3.6,2.1-5.4,3.1c-2.2,1.2-3.5,3-4.3,5.5C117.9,113.2,122.2,110.7,124.9,106.5z M120.4,100
	c1.4-2.2,3.1-4.3,4.5-6.5c-1.1,0.8-2.6,1-3.4,2.3C120.7,97.1,120.4,98.5,120.4,100z"/>
<path class="st1" d="M140,78.8c-1.3,2.8-1.2,5.5,0,8.3c0.8,1.9,1.9,3.6,2.9,5.3c0.6,1.1,1.1,2.2,1,3.5c-0.1,0.9-0.4,1.8-0.7,2.7
	c-0.1,0.2-0.1,0.4-0.2,0.6c-0.1,0.2-0.1,0.4,0.1,0.5c0.2,0.1,0.4,0,0.5-0.2c0.3-0.4,0.4-0.8,0.6-1.2c0.3-0.9,0.4-1.8,0.3-2.7
	c-0.1-0.8,0.2-1.5,0.6-2.2c0.5-0.9,1-1.8,1.3-2.8c0.9-2.3,1-4.7,0.5-7.1c-0.4-2.1-1.5-3.8-2.8-5.5c-0.5-0.6-1-1.2-1.4-1.9
	c-0.2-0.3-0.4-0.2-0.5,0c-0.1,0.2-0.3,0.4-0.5,0.5C141,77.3,140.3,77.9,140,78.8z M143.8,90c-0.4-0.5-0.8-1-1.1-1.4
	c-1-1.2-2-2.5-2.7-3.9c-0.2-0.4-0.5-0.7-0.5-1.1c-0.1-1,0-2,0.2-3c0.2-0.6,0.4-1.3,0.8-1.9c0.3,1,0.7,1.8,1.1,2.5
	c0.4,0.8,0.9,1.6,1.3,2.4c0.5,1.1,0.9,2.2,0.8,3.4C143.8,87.9,143.8,88.9,143.8,90z M144.2,88.8c0-0.3,0-0.4,0-0.6
	c0.1-1.4,0.1-2.9,0-4.3c0-0.4,0-0.8,0.1-1.2c0.1-0.8,0.4-1.5,0.4-2.3c0-0.2-0.1-0.4,0.1-0.6C147.2,83.2,146.6,85.9,144.2,88.8z
	 M144.3,94.2c0-0.1-0.1-0.1-0.1-0.2c-0.3-1.4-0.1-2.9-0.1-4.3c0-0.1,0.1-0.2,0.2-0.4c0.4-0.8,1-1.4,1.4-2.1c0.4-0.7,0.5-1.4,0.9-2.1
	c0.2,1.7,0.1,3.3-0.3,4.9C145.8,91.4,145,92.8,144.3,94.2z M142.3,76.8c0.6,2.3,1.1,4.6,1.3,7c-0.9-1.8-2.2-3.4-2.7-5.3
	c-0.1-0.2,0-0.3,0.1-0.4C141.3,77.6,141.8,77.2,142.3,76.8z M139.8,84.8c0.2,0.3,0.3,0.6,0.5,0.9c0.6,1.2,1.5,2.1,2.3,3.1
	c1,1.2,1.3,2.6,1.1,4.2C142.1,90.4,140.3,87.9,139.8,84.8z M144,82.2c-0.3-1.6-0.7-3.2-1-4.8c0.5,0.7,1.3,1.2,1.4,2.1
	C144.5,80.5,144.4,81.4,144,82.2z"/>
<path class="st1" d="M284.4,31.4c-3,5.5-7.8,8.7-13.7,10.3c-4,1.1-8.2,1.3-12.4,1.7c-2.5,0.3-5,0.9-7,2.6c-1.5,1.2-2.5,2.8-3.6,4.4
	c-0.3,0.4-0.5,0.8-0.8,1.1c-0.2,0.3-0.5,0.6-0.9,0.4c-0.5-0.2-0.3-0.6-0.2-1c0.2-0.9,0.8-1.7,1.3-2.4c1.1-1.6,2.4-2.9,4-3.9
	c1.4-0.9,2.3-2.3,2.9-3.8c0.9-1.9,1.8-3.8,2.9-5.6c2.7-4.3,6.5-7.4,11.1-9.6c3.9-1.9,8.1-2.3,12.4-2.1c1.6,0.1,3.2,0.2,4.9,0
	c0.7-0.1,0.8,0.4,0.5,0.8c-0.3,0.5-0.3,0.9-0.3,1.4C285.7,27.8,285.4,29.7,284.4,31.4z M261.4,38.8c1.3,0.2,2.5,0.1,3.7,0.1
	c3.2,0.1,6.5,0.2,9.7-0.5c0.8-0.2,1.7-0.1,2.5-0.6c1.7-1.1,3.3-2.4,4.6-4c0.8-1.1,1.6-2.2,2.1-3.7c-1.9,0.7-3.7,1.1-5.5,1.3
	c-1.9,0.2-3.7,0.4-5.6,0.7c-2.4,0.4-4.7,1.2-6.6,2.8C264.8,36.3,263.1,37.5,261.4,38.8z M262.9,36.7c0.4-0.3,0.7-0.6,1-0.8
	c2.3-1.9,4.7-3.7,7.2-5.3c0.7-0.5,1.4-1,2-1.6c1.1-1.2,2-2.5,3.2-3.5c0.3-0.3,0.7-0.4,0.9-0.8C268.5,24.9,264.7,29.2,262.9,36.7z
	 M253.8,43.2c0.2-0.1,0.3-0.1,0.4-0.1c2.7-1.3,4.9-3.4,7.3-5.2c0.2-0.2,0.3-0.5,0.4-0.7c0.9-1.6,1-3.4,1.8-5
	c0.7-1.4,1.7-2.7,2.5-4.1c-3,1.7-5.6,3.8-7.6,6.5C256.6,37.2,255.3,40.2,253.8,43.2z M284.9,25c-4.5,1.9-8.9,3.8-13,6.5
	c4-0.7,8.1-0.6,12-2c0.4-0.1,0.5-0.3,0.6-0.7C284.8,27.6,284.9,26.3,284.9,25z M274.7,39.1c-0.7,0.1-1.4,0.2-2.1,0.3
	c-2.6,0.4-5.3,0.1-7.9,0c-3.2-0.1-5.8,1.1-8.3,3.3C262.7,42,269,42.1,274.7,39.1z M273.9,28.9c3-1.5,6.1-2.8,9.1-4.3
	c-1.7,0.1-3.5-0.6-5.2,0.4C276.2,25.9,274.9,27.3,273.9,28.9z"/>
</svg>
