<?xml version="1.0" encoding="utf-8"?>
<!-- Generator: Adobe Illustrator 22.0.0, SVG Export Plug-In . SVG Version: 6.00 Build 0)  -->
<svg version="1.1" id="Capa_1" xmlns="http://www.w3.org/2000/svg" xmlns:xlink="http://www.w3.org/1999/xlink" x="0px" y="0px"
	 viewBox="0 0 319.3 370.4" style="enable-background:new 0 0 319.3 370.4;" xml:space="preserve">
<style type="text/css">
	.st0{fill:#E2E57B;}
</style>
<path class="st0" d="M316,74.4c-9.2,57.3-44.8,99.9-98.5,131.8c-36.5,21.7-77.6,36.3-117.7,52.3c-24.7,9.9-46.5,22.7-60.1,43.5
	c-10,15.2-14.8,32.2-19.7,49.1c-1.2,4.1-2.2,8.2-3.3,12.3c-0.9,3.5-2.7,6.9-7.4,6.5c-5.4-0.5-5.9-4.6-6.5-8.4
	c-1.2-8.7,1.5-16.9,3.9-25.1c4.9-16.8,13.3-32.2,25.5-45.9c10.9-12.3,14-26.8,15.2-41.9c1.6-19.5,3.6-38.9,8-58
	c10.7-46.2,37.7-84.2,74.9-117.4c32-28.6,72.5-44.6,116.2-55.8C263,13.2,279.9,9.6,295.4,3c6.9-2.9,9.5,0.8,8.7,5.7
	c-0.8,4.8,0.5,8.8,2.6,13C314.9,38.7,319.8,56,316,74.4z M113.1,208c13.8-2.5,25.7-6.9,38.2-10.3c32.9-8.9,66-17.8,95.8-33
	c7.7-4,16.9-6.3,22.5-12.9c12.9-15.1,24.3-31.1,30.8-49.2c4.2-11.8,7.9-24,7.5-38.6c-16.7,11.8-33.2,20.5-50.6,28.1
	c-17.7,7.7-35.8,14.8-53.1,23.1c-22.5,10.9-42.5,24.2-55.7,44.1C137.4,175.9,124.9,191.8,113.1,208z M120.2,185.1
	c3.1-4.3,5.2-7.1,7.1-10c15.4-23.7,32.8-46.3,52.3-67.6c5.6-6.2,9.9-13,13.4-20.2c6.4-13.4,10.2-27.7,18.5-40.4
	c2.1-3.1,5.9-5.6,6-10.1C131.5,64.4,109.8,114,120.2,185.1z M53.5,269.3c1.8-1.1,2.9-1.6,3.8-2.3c22.5-19.7,36.6-44.4,53.2-67.6
	c1.4-2,1-4.9,1.4-7.4c2.6-16.3-3-32.7-1.3-49c1.5-14.8,7.3-28.6,9.4-43.3c-23.8,23.6-41.5,50-52,80.3
	C58.2,208.6,56.7,238.5,53.5,269.3z M297.3,16.7c-38.5,29.8-75.2,60.4-106.3,95.6c37.8-18,79.8-29.4,113.3-53.6
	c3.2-2.3,4.1-4.4,3.5-7.8C305.7,39.4,301.3,28.4,297.3,16.7z M248.3,170.8c-6.5,2.9-13.1,5.7-19.6,8.6c-25.2,11.3-53,16.6-79.9,24.2
	c-32.4,9.1-54.6,27.3-71.2,54.2C138.6,232.5,201.9,213.8,248.3,170.8z M201.6,84.1c24.4-22.4,51-42.7,75.5-65.1
	c-17,6.5-37.8,5.7-51.1,18.8C212.6,50.9,205,66.5,201.6,84.1z"/>
<path class="st0" d="M171.6,333.5c4.2-24.6,19.8-42.7,43-56.1c15.8-9.1,33.5-15.2,50.8-21.9c10.7-4.1,20.1-9.5,26-18.4
	c4.4-6.5,6.5-13.8,8.7-21c0.5-1.8,1-3.5,1.5-5.3c0.4-1.5,1.2-3,3.2-2.8c2.3,0.2,2.5,2,2.8,3.6c0.5,3.7-0.7,7.3-1.8,10.8
	c-2.2,7.2-5.9,13.8-11.2,19.6c-4.7,5.2-6.2,11.4-6.7,17.9c-0.8,8.4-1.7,16.7-3.7,24.9c-4.8,19.8-16.6,36-32.8,50.1
	c-13.9,12.1-31.4,18.8-50.2,23.4c-7.1,1.7-14.4,3.2-21.1,5.9c-3,1.2-4.1-0.4-3.7-2.5c0.4-2.1-0.2-3.8-1.1-5.6
	C171.9,348.8,169.9,341.4,171.6,333.5z M259.5,277.1c-5.9,1-11.1,2.8-16.5,4.2c-14.2,3.7-28.5,7.3-41.3,13.7
	c-3.3,1.7-7.3,2.6-9.7,5.4c-5.6,6.4-10.6,13.2-13.5,21c-1.9,5-3.5,10.3-3.4,16.5c7.2-5,14.4-8.6,21.9-11.8
	c7.6-3.2,15.5-6.2,22.9-9.7c9.7-4.6,18.4-10.2,24.2-18.7C248.9,290.7,254.3,284,259.5,277.1z M256.3,286.9c-1.4,1.8-2.3,3-3.1,4.3
	c-6.7,10.1-14.3,19.7-22.8,28.8c-2.4,2.6-4.3,5.5-5.9,8.6c-2.8,5.7-4.5,11.9-8.2,17.3c-0.9,1.3-2.6,2.4-2.6,4.3
	C250.8,338.7,260.4,317.5,256.3,286.9z M285.4,251c-0.8,0.5-1.3,0.7-1.6,1c-9.8,8.4-16,18.9-23.2,28.8c-0.6,0.9-0.5,2.1-0.6,3.2
	c-1.2,7,1.1,14.1,0.3,21.1c-0.7,6.4-3.3,12.3-4.3,18.6c10.3-10,18.1-21.3,22.7-34.2C283.1,277.1,283.8,264.2,285.4,251z
	 M179.3,358.4c16.7-12.6,32.6-25.6,46.2-40.5c-16.3,7.5-34.4,12.2-49,22.5c-1.4,1-1.8,1.9-1.5,3.3
	C175.8,348.6,177.7,353.3,179.3,358.4z M201.2,292.4c2.8-1.2,5.7-2.4,8.5-3.6c10.9-4.7,22.9-6.9,34.5-10c14-3.7,23.6-11.5,30.9-22.9
	C248.6,266.4,221.3,274.1,201.2,292.4z M220.8,329.9c-10.6,9.5-22.1,18.1-32.8,27.6c7.3-2.7,16.3-2.3,22.1-7.8
	C215.9,344.1,219.3,337.4,220.8,329.9z"/>
</svg>
