<?xml version="1.0" encoding="utf-8"?>
<!-- Generator: Adobe Illustrator 22.0.0, SVG Export Plug-In . SVG Version: 6.00 Build 0)  -->
<svg version="1.1" id="Capa_1" xmlns="http://www.w3.org/2000/svg" xmlns:xlink="http://www.w3.org/1999/xlink" x="0px" y="0px"
	 viewBox="0 0 435.9 136.4" style="enable-background:new 0 0 435.9 136.4;" xml:space="preserve">
<style type="text/css">
	.st0{fill:#0D0D0D;}
	.st1{fill:#121212;}
	.st2{fill:#FBFBFB;}
	.st3{fill:#FDFDFD;}
	.st4{display:none;}
	.st5{display:inline;opacity:0.6;}
	.st6{fill:#040404;}
	.st7{fill:#F7F7F7;}
	.st8{fill:#2E2E2E;}
	.st9{fill:#FEFEFE;}
	.st10{fill:#FCFCFC;}
	.st11{fill:none;stroke:#000000;stroke-width:2;stroke-miterlimit:10;}
</style>
<path class="st0" d="M380,70.6c-4-0.2-7.9,0.6-11.4,2.6c-0.3,0.1-0.6,0.2-0.8,0.4c-2.3,1-4.3,2.5-5.6,4.7c-0.5,0.5-0.9,1.1-0.9,1.9
	c-0.9,1.9-0.9,3.9,0,5.8c0,0.4,0,0.9,0.4,1.2c1,3,3.2,4,6.1,4.1c3.8,0.2,7.4-0.8,10.9-2.2c0.8-0.3,1.5-0.9,2.7-0.5
	c-1.3,1.5-2.8,2.5-4.3,3.4c-3.5,2-7.3,3.1-11.3,2.2c-2.3-0.5-4.2-1.7-5.3-3.8c-0.4-0.7-0.6-1-1.8-0.8c-4.6,0.8-10.2-1.3-11.4-7.2
	c-0.5-2.3-0.1-4.6-0.5-6.9c-0.9-6.3-7.3-9.4-12.7-6.1c-3.8,2.4-7.2,5.3-10,9c-0.6,0.8-0.8,1.6-0.7,2.6c0,2.7-0.2,5.3-1.8,8.3
	c-0.2-3.3-0.1-6.1-0.8-8.8c-1.3-4.8-3.5-8.8-8.7-10.4c-3.9-1.2-7.6,0.2-10.1,4.3c-2.8,4.5-6,8.7-8.9,13.1c-4.7,7-14.3,7.2-19.4,0.5
	c-3.4,2.2-7,3.8-11.2,3.9c-3.3,0.1-6.2-0.8-8.9-2.7c-0.6-0.4-1.1-0.9-2.1-0.3c-4.4,2.2-10.3,0.1-12.4-4.3c-3.2,2.6-6.7,4.7-10.5,6.1
	c-4.8,1.8-9.7,2.5-14.8,2c-4.9-0.6-6.6-3.8-4.3-8.1c0.6-1.2,1.3-2.4,2.2-3.3c8.2-7.7,17.3-12.5,29-9.4c1.2,0.3,1.6,0,2.3-1
	c3.3-5.6,5.9-11.4,7.7-17.7c1.4-5,3.8-9.6,6.5-14.2c0.5,1,0.1,1.7,0,2.4c-1.2,5.6-3.2,10.9-6,16c-4.1,7.3-6.5,15.2-8.9,23.1
	c-1.1,3.7,0.2,5.7,3.9,6.7c1.9,0.5,4,0.8,6.1,1.2c-0.1-0.9-0.7-1.2-1-1.6c-2.1-2.6-2.7-5.7-0.8-8.4c4-6,8.7-11.4,16.3-12.7
	c2.5-0.4,5-0.4,7.5,0.1c1.5,0.3,2.9,1.1,4.5,0c-1.7,3.5-3.2,6.8-4.5,10.3c-1.7,4.5-0.9,8.1,2.6,11.3c1.5,1.5,3.5,2,5.5,2.3
	c1.4,0.2,2.8,0.1,4.2,0c3.1-0.1,5.3-0.6,6.4-4.6c2-7,7.3-12,13.4-15.8c5.6-3.5,12.6-1.2,15.7,5c0.4,0.9,0.8,1.7,1.3,2.9
	c0.8-1.3,1.5-2.4,2.2-3.5c4.1-5.8,10.9-8,17.4-5.9c4.4,1.5,6.7,4.6,7.3,9.1c0,0.5,0.1,0.9,0.1,1.4c0.5,7.1,2.6,9.5,9.9,11.1
	c-2.2-5.8,0.4-10.3,3.6-14.6c3.9-5.3,10.3-7.2,16.5-5c0.4,0.1,0.9,0.2,1.3,0.3c0.1,0.1,0.1,0.1,0.2,0.2c-0.1,0.4-0.3,0.7-0.4,1.1
	C380.9,70.6,380.2,70.7,380,70.6z M275.8,66.8c-7.5-0.2-16.3,2.6-20.7,6.4c-6.3,5.4-5.2,11.7,2.6,14.5c4.5,1.6,9.1,0.7,13.6-0.4
	c1.5-0.4,1.5-0.9,1.3-2.3C271.4,78.7,270.3,72.3,275.8,66.8z M217.3,89.5c7.7-0.9,13.2-2.4,20-5.8c0.6-0.2,1.3-0.3,1.3-1.3
	c-0.1-3.1,1.1-5.9,2.4-8.6c0.5-1.1,0.3-1.4-0.8-1.3c-3.3,0.1-6.7,0.1-10,0.9c-5.1,1.1-10.2,2.5-14.7,5.4c-2.7,1.7-4.3,4.2-5,7.3
	c-0.4,1.9,0.3,3,2.3,3.4C214.2,89.8,215.8,89.6,217.3,89.5z"/>
<path class="st0" d="M159.8,84c3.6-5.7,7.2-11.3,10.7-17c0.4-0.6,1.3-1.1,0.9-1.8c-0.4-0.9-1.3-0.1-1.9,0c-6.5,0.6-13-0.3-19.5-1
	c-11.5-1.2-22.9-2.5-34.5-2.8c-1.9,0-3,0.4-3.8,2.4c-2.9,7.3-6.3,14.3-11.9,20.1c-5,5.3-10.4,10.1-17.9,11.6c-8,1.6-15.1,0-20.7-6.1
	c-3-3.3-3.4-7.2-1.5-11.2c1.7-3.5,4.4-6.1,7.9-8c9.2-4.8,19.2-7.6,29.3-9.7c4.3-0.9,8.6-1.5,12.9-1.9c1.3-0.1,1.8-0.6,2.3-1.6
	c4.1-8.7,8.4-17.3,13.4-25.5c5.6-9,13.9-14.4,24.4-16c2.7-0.4,5.1,0.4,7.3,2.2c-0.4,0.6-0.8,0.3-1.1,0.1c-2.7-1.6-5.5-1.6-8.4-0.6
	c-10.1,3.3-17.6,9.5-22.3,19.1c-3.2,6.5-6.6,12.9-9.9,19.3c-1.4,2.8-1.4,2.8,1.6,2.8c9.7,0.2,19.3,1.5,28.9,2.6
	c7.3,0.8,14.4,2.4,21.8,2.2c1.5,0,3-0.3,4.5-0.4c1,0,1.5-0.7,2-1.5c2.2-3.2,4.5-6.3,6.8-9.5c0.3-0.5,0.5-1.1,1.7-1.4
	c-2.4,3.9-4.5,7.6-6.7,11.1c-0.1,0.1-0.1,0.2-0.2,0.3c0.1,0,0.3,0,0.4,0C182,60.4,187,57.8,192,55c0.1,0.1,0.3,0.2,0.4,0.3
	c-5,3.9-10.6,6.6-16.6,8.3c-1.2,0.3-1.9,0.9-2.6,1.9c-4.1,6.3-8.6,12.3-12.9,18.4C160.1,84,159.9,84,159.8,84z M109.7,61.6
	c-0.3,0-0.6,0-1,0c-12.9,1.4-25.4,4.2-37.4,9.3c-2.5,1.1-5,2.1-6.9,4.1c-2.8,2.8-5.4,6-3.9,10.3c1.5,4.5,5.3,7.3,9.6,8.7
	c8,2.7,15.3,0.6,21.8-4.5C101.1,82.1,106.3,72.5,109.7,61.6z"/>
<path class="st0" d="M157.3,88c-1.5,2.4-2.9,4.8-4.4,7.2c0.6,0.7,1.4-0.1,1.7,0.6c-2.2-0.4-3,1.3-4,2.9
	c-8.2,12.9-16.6,25.6-25.7,37.9c-0.4,0.5-0.6,1.2-1.6,1.3c8.5-14.1,17.6-27.6,27.2-41.3c-2.6,0.3-4.8,0.6-7,0.9
	c-12.1,1.7-24.4,2.7-36.6,2.5c-16.4-0.3-32.7-0.2-49-1.5c-15.9-1.2-31.5-3.8-46.6-8.9c-3-1-4.7,1.1-6.5,2.8C3.1,94,3,95.8,4.1,97.9
	c0.7,1.4,1.7,2.5,2.8,3.6c0.4,0.4,1,0.7,0.7,1.5c-1.6-1.3-3.2-2.5-4.4-4.2c-1.8-2.8-1.6-5.5,0.6-8c1.5-1.6,3.3-2.6,5.2-3.5
	c0.7-0.3,1.3-0.1,1.9,0c20.7,5.9,41.8,8.9,63.2,10.8c12.2,1.1,24.3,0.7,36.5-0.1c9.7-0.7,19.4-1.2,29-1.7c3.5-0.2,7-0.5,10.5-0.7
	c1,0,1.5-0.5,2.1-1.2c1.6-2.3,3.2-4.5,4.8-6.7C157.1,87.7,157.2,87.8,157.3,88z"/>
<path class="st0" d="M207.3,89.1c-6.5,2.7-12.6,4.7-19.4,3.4c-3.1-0.6-5.4-2.4-6.1-5.6c-0.1-0.8-0.6-0.7-1.2-0.6
	c-2,0.4-3.9,0.8-5.9,1.2c-0.6,0.1-1.3,0.3-2.1,0c2.6-0.8,5.1-1.5,7.5-2.2c0.9-0.2,1.3-0.5,1.3-1.5c0-2.5,1-4.7,2.6-6.6
	c6.7-8.3,15.5-12.1,26.1-11.9c1.9,0,3.8,0.2,5.6,0.8c1.1,0.3,2.3,0.5,2.6,1.9c0.3,1.3-0.7,2.1-1.5,2.9c-3.2,2.7-6.7,4.9-10.4,7
	c-6.4,3.8-13.5,5.6-20.7,7.4c-2.5,0.6-2.6,0.9-1.3,3.1c1.2,2,3.2,2.5,5.3,2.9c4.9,0.8,9.6-0.3,14.4-1.5c0.8-0.2,1.5-0.4,2.3-0.6
	C206.7,88.9,206.8,88.9,207.3,89.1z M183.5,84.2c3.7-1.1,7.4-2.1,10.9-3.3c7.6-2.4,14.7-5.6,21.2-10.2c0.9-0.7,2.3-1.4,2.1-2.6
	c-0.3-1.4-1.9-1.4-3-1.6c-2.9-0.5-5.8-0.5-8.7,0c-8.4,1.5-15.5,5.2-20.6,12.3C184.3,80.3,183.5,82,183.5,84.2z"/>
<path class="st1" d="M354.7,102.5c-9.6-0.2-19.1-0.5-28.7-0.7c-9.4-0.2-18.7-0.4-28.1-0.6c-19.6-0.4-39.2-0.8-58.7-1.2
	c-13.8-0.3-27.5-0.7-41.3-1.1c-11.7-0.3-23.5-0.8-35.2-1.1c-0.9,0-1.4-1.2-2.4-0.4c1.2,0,2.4-0.1,3.4-0.1
	c13.9,0.1,27.9,0.1,41.8,0.2c15.1,0.2,30,0.4,45.1,0.8c18.4,0.4,36.8,1,55.3,1.6c16.1,0.5,32.2,1.2,48.3,1.8c0.2,0,0.4,0.1,0.6,0.1
	C354.8,102.2,354.8,102.3,354.7,102.5z"/>
<path class="st0" d="M136,66.5c0.4,0.9-0.1,1.3-0.4,1.8c-1.5,2.5-2.5,5.4-4,7.9c-3.6,6.2,0.3,14.8,9.4,14.9c2.5,0,4.8-0.3,7.6-0.7
	c-2.1,2.2-4.5,3-7,3.3c-4.2,0.6-7.9-0.4-10.4-4c-0.6-0.9-1.1-0.9-2-0.4c-4.5,2.5-9.1,3.6-14.2,2.3c-2.9-0.8-5.2-2.5-7-4.8
	c-2.1-2.9-2.5-6-0.4-8.8c4.6-6.2,9.9-11.5,18.3-11.9c2.1-0.1,4.2,0.1,6.2,0.7C133.6,66.9,134.8,67.6,136,66.5z M134,67.7
	c-7.8,0.1-14.9,1.3-21,5.7c-2.8,1.9-5.1,4.5-4.5,8.2c0.6,3.8,3.7,5.6,7,6.8c4.4,1.5,8.8,0.8,13.2-0.2c1.1-0.2,1.3-0.5,1.2-1.8
	C129,79.8,127.9,73.1,134,67.7z"/>
<path class="st0" d="M428.4,128.6c-0.5,0.7-0.9,1.3-1.3,1.7c-1.5,1.8-3,1.9-4.5,0c-0.5-0.7-0.7-0.4-1.2-0.1
	c-1.1,0.7-2.2,1.9-3.5,1.2c-1.3-0.7-0.8-2.4-1-3.6c-0.1-0.7,0-1.4,0-2.7c-1.1,2.1-1.6,3.7-2.8,5.1c-0.7,0.9-1.5,1.8-2.8,1.6
	c-1.4-0.2-1.9-1.4-2.2-2.5c-0.8-3.8-0.4-7.5,2-10.7c1.3-1.7,3-2.7,5.1-2c1.2,0.4,1-0.3,1-0.9c0.2-3.4,0.4-6.8,0.6-10.3
	c0-0.6,0-1.4,0.8-1.6c1.3-0.5,1.8,0.1,1.6,1.8c-0.8,6.5-1.3,13.1-1.3,19.7c0,0.9,0,1.7,0.1,2.6c0.1,0.6-0.4,1.8,1,1.7
	c0.9-0.1,1.8-0.2,1.9-1.7c0.1-2.6,2.1-4.2,5.3-4.7c0.4,0,1.2,0.3,1.3-0.5c0.1-1.4,0.4-2.9-0.8-4.1c-0.6-0.6-1.4-0.7-2-0.4
	c-1.1,0.5-1.2,1.5-0.8,2.5c0.2,0.6,0.7,1.3-0.4,1.5c-1,0.2-1.5-0.2-1.7-1.2c-0.4-1.8,1.5-4.1,3.8-4.5c2.4-0.4,3.9,0.5,4.1,2.8
	c0.1,2.4,0,4.7-0.1,7.1c0,0.8,0,1.6,0.1,2.4c0.1,1,0.6,1.6,1.8,1.2c0.3-0.1,0.7-0.5,1,0c0.2,0.4-0.1,0.7-0.4,1
	c-1.4,1.4-3.4,1-4.2-0.7C428.7,129.7,428.6,129.3,428.4,128.6z M411.2,125.1c0,0.4-0.1,0.8,0,1.2c0.2,0.9,0,2.3,1.1,2.6
	c1.1,0.3,1.6-0.9,2.1-1.7c1.3-2.1,2.1-4.5,2.6-7c0.1-0.7,0.7-1.5-0.1-2c-0.7-0.5-1.6-0.5-2.5-0.2c-1.1,0.4-1.8,1.3-2.3,2.4
	C411.5,121.9,411.2,123.5,411.2,125.1z M424.4,127.8c0,0.4,0,1.1,0.6,1.5c0.7,0.3,1.2-0.2,1.6-0.7c0.9-0.9,1.4-2.1,1.6-3.3
	c0.1-0.4,0.2-0.9-0.6-0.9C426,124.3,424.5,125.7,424.4,127.8z"/>
<path class="st1" d="M379.6,74.5c0,2.7-0.1,5.3,0.2,7.9c0.7,6.4,4.5,9.7,11.8,10.6c6.4,0.8,12.6,0,18.7-1.8c4.4-1.3,7.7,1.8,6.9,6.3
	c-0.7,4-2.8,6.1-7.6,6.8c-7,1.1-14,1.8-21.1,0.9c-6.8-1-13.6-1.6-20.4-2c-4-0.2-8-0.4-12-0.6c-0.6,0-1.2,0.1-1.7-0.2
	c0-0.1,0-0.3,0-0.4c11.3,0.5,22.7,0.6,33.9,2.2c5,0.7,10,0,15-0.4c2.5-0.2,5-0.3,7.4-1c4-1.1,6.1-5.2,4.4-8.4
	c-0.9-1.5-1.9-2.2-3.9-1.6c-7.2,2.2-14.6,3-22,1.4c-6.6-1.5-10-5.5-10.3-12.3C378.8,79.1,379,76.8,379.6,74.5L379.6,74.5z"/>
<path class="st0" d="M338.1,125.7c-1.2,1.5-1.8,3.4-3.1,4.8c-1.9,2-3.8,1.7-4.5-0.9c-1.2-4.1-0.5-8,2.1-11.4
	c1.5-1.9,3.5-2.4,5.9-1.5c0.1-3.3,0.3-6.5,0.5-9.8c0-0.7,0.1-1.5,0.2-2.2c0.1-1,0.7-1.3,1.6-1.2c1.2,0.1,0.9,0.9,0.8,1.6
	c-0.7,6.8-1.3,13.6-1.4,20.5c0,0.7,0,1.5,0.1,2.2c0,1.2,0.3,2.2,1.9,1.4c0.2-0.1,0.5-0.2,0.7,0c0.1,0.3,0.1,0.7-0.1,0.9
	c-1,0.8-2.1,1.8-3.5,1.4c-1.2-0.3-1-1.7-1.1-2.7C338.1,127.8,338.1,126.8,338.1,125.7z M332.2,125.1c0,0.5,0,1.1,0.1,1.5
	c0.2,0.8,0.1,2.1,1.2,2.3c0.9,0.1,1.4-0.8,1.9-1.5c1.5-2.3,2.3-4.8,2.8-7.5c0.3-1.7-0.3-2.3-2.1-2c-1.3,0.2-2,1-2.5,2
	C332.6,121.4,332.3,123.3,332.2,125.1z"/>
<path class="st0" d="M395.2,127.9c2.1-5.2,3.9-9.8,4.9-14.8c0.3-1.6,0.4-3.2-0.5-4.8c-0.6-1,0-1.2,0.8-1c1.5,0.2,2,1.3,2,2.7
	c0,1.8-0.5,3.5-1.1,5.2c-1.6,5.1-3.6,10.2-5.7,15.1c-0.3,0.8-0.7,1.4-1.7,1.3c-1.1-0.1-0.8-1.1-0.9-1.7c-1-6-1.7-12-3.1-17.9
	c-0.3-1.4-0.7-2.8-2.7-2.4c-0.4,0.1-0.6-0.1-0.6-0.5c0-0.3,0-0.6,0.4-0.8c2.3-1.5,4.3-0.8,5,1.8c1.2,4.8,1.9,9.7,2.6,14.6
	C394.9,125.6,395,126.5,395.2,127.9z"/>
<path class="st0" d="M360.6,120.1c0-2.6,0-5.9,0-9.2c0-1.2-0.5-1.5-1.6-1.4c-0.4,0.1-1,0.2-1.1-0.5c0-0.6,0.4-0.8,0.9-0.9
	c0.5-0.2,1-0.3,1.5-0.4c2-0.4,2.7,0.1,2.7,2.2c-0.1,4.9-0.2,9.9-0.3,14.8c-0.1,4.9,0,5.1,4.9,4.5c1.6-0.2,1.6-1.5,1.9-2.6
	c0.1-0.5-0.2-1.5,0.7-1.3c0.8,0.1,0.5,1,0.5,1.5c0,0.7-0.1,1.3-0.2,2c-0.3,2.4-1.2,3-3.6,2.6c-2-0.4-4-0.7-6.1-0.1
	c-0.9,0.3-1-0.2-0.9-0.9C360.3,127.2,360.4,124,360.6,120.1z"/>
<path class="st0" d="M377.8,128.6c-0.8,0.9-1.3,1.7-1.9,2.3c-1.6,1.5-3.7,0.8-4.2-1.4c-0.8-3.2,1.2-6,4.9-6.4
	c1.8-0.2,1.5-1.1,1.5-2.2c0-1.4-0.1-2.7-1.8-3.1c-1.5-0.3-2.2,0.7-1.9,2.5c0.1,0.6,0.7,1.5-0.5,1.6c-1,0.1-1.5-0.5-1.6-1.3
	c-0.4-1.7,1.5-3.9,3.7-4.4c2.3-0.5,3.7,0.3,4.1,2.5c0.5,2.6-0.2,5.2,0,7.9c0,0.7,0,1.3,0.1,1.9c0.2,0.9,0.7,1.6,1.8,1.1
	c0.2-0.1,0.5-0.5,0.8-0.1c0.3,0.4,0,0.7-0.2,1c-1.3,1.5-3.3,1.3-4.2-0.4C378.2,129.8,378.1,129.3,377.8,128.6z M377.9,124.4
	c-2.8,0-4.5,1.5-4.1,3.5c0.1,0.5,0.2,1.1,0.7,1.3c0.6,0.2,1-0.1,1.4-0.5C377.2,127.5,377.7,126.1,377.9,124.4z"/>
<path class="st0" d="M343.3,125.1c0.1-2.8,0.7-5.3,2.7-7.4c1.2-1.3,2.7-1.7,4.3-1.3c1.3,0.4,1.9,1.5,1.9,2.7c0.1,1.8-0.8,3-2.4,3.7
	c-0.9,0.4-1.8,0.9-2.8,0.9c-1.4,0.1-1.6,0.7-1.4,1.9c0.1,0.5,0.2,1,0.4,1.5c0.6,2.1,2.8,3.5,4.7,1.2c0.2-0.3,0.5-0.7,1-0.5
	c0.4,0.2,0.3,0.7,0.1,1c-1,1.5-2.1,2.8-4,2.9c-1.8,0.1-3-1-3.7-2.5C343.5,128,343.2,126.6,343.3,125.1z M349.8,119.9
	c0-0.7-0.1-1.6-1.1-1.9c-0.9-0.2-1.5,0.3-1.9,1c-0.6,0.9-0.9,1.9-1.1,2.9c0,0.3-0.2,0.7,0.4,0.9
	C347.4,122.9,349.6,121.3,349.8,119.9z"/>
<path class="st1" d="M406.2,117.7c-0.5,3.5-0.4,6.8-0.4,10.1c0,1.4,0.3,2.3,2,1.5c0.3-0.1,0.6-0.2,0.8,0.2c0,0.2,0,0.6-0.2,0.7
	c-1,0.8-2.1,1.8-3.5,1.5c-1.3-0.3-1-1.7-1.1-2.7c-0.4-3.7,0.1-7.4,0-11c0-0.9,0.3-1.6,1.4-1.5C406.1,116.4,406.4,117,406.2,117.7z"
	/>
<path class="st1" d="M404,110.6c0.1-0.9,0.3-1.9,1.5-1.9c1.1,0,1.4,0.9,1.4,1.8c0,1-0.3,2.1-1.6,2
	C404.2,112.4,404.1,111.4,404,110.6z"/>
<path class="st2" d="M360.6,80.9c0-0.8,0.5-1.3,1-1.8c1,0.5,0.9,1.2,0.4,1.9C361.6,81.4,361,81.7,360.6,80.9z"/>
<path class="st2" d="M379.8,72.2c0.3,0.2,1,0,0.9,0.8c-0.1,0.7-0.1,1.4-1,1.6l0,0C379.6,73.8,379.7,72.9,379.8,72.2z"/>
<path class="st2" d="M367.4,74.6c0.3-0.1,0.6-0.2,0.8-0.4c0,0.3,0,0.6-0.3,0.7C367.6,75.1,367.5,74.8,367.4,74.6z"/>
<path class="st3" d="M176.4,50.9c-0.1,0-0.3,0-0.4,0c0.1-0.1,0.1-0.2,0.2-0.3C176.2,50.7,176.3,50.8,176.4,50.9z"/>
<g id="aureola" class="st4">
	<g class="st5">
		<path class="st6" d="M422.2-59.4c-5.8,0-11.5-0.5-17.2-1c-4.8-0.5-9.7-1.1-14.5-2.1c0-0.2,0-0.5,0-0.7l0,0c2-1.4,3.6-3.1,5.1-5
			c7.8,1.4,15.7,2.1,23.6,2.4c2.9,0.1,5.8,0.2,8.7,0.3c0,0.1,0,0.2,0,0.3l0,0c-0.8,0.3-1.4,0.7-1.4,1.7l0,0
			c-0.1,0.1-0.2,0.2-0.3,0.3l0,0c-1,0-1.4,0.7-1.7,1.4l0,0c-0.3,0-0.5,0.2-0.5,0.5l0,0C423.2-61,422.6-60.3,422.2-59.4z"/>
		<path class="st6" d="M377.4-73.9c3.8-1.8,7.8-3,12-3.7c0,0.2,0.1,0.5,0.4,0.4c0.3-0.1,0.3-0.3,0.2-0.6c0.2,0,0.4,0,0.5-0.1
			c0,0.3-0.1,0.6,0.3,0.6c0.5,0,0.5-0.4,0.6-0.8c0.2,0,0.3,0,0.5-0.1c-0.2,0.4-0.1,0.7,0.3,0.6c0.5-0.1,0.2-0.5,0.1-0.7
			c0.5-0.1,1-0.2,1.5-0.3c0,0.2,0.1,0.3,0.3,0.3s0.2-0.2,0.2-0.4c1.9-0.4,3.8-0.7,5.8-0.8c0.1,0.5,0.3,0.7,0.7,0.3
			c0.3,0,0.7,0,0.7-0.5c0.3,0,0.6-0.1,0.9-0.1c0.2,0.4,0.4,0.4,0.5-0.1c0.5-0.1,1.1-0.1,1.6-0.2c0.9,0.5,1,1.2,0.3,1.9
			c-0.6,0.1-1.3,0.1-1.9,0.2c0-0.2-0.1-0.5-0.4-0.5c-0.4,0-0.3,0.3-0.3,0.6c-1.1,0.2-2.1,0.3-3.2,0.5c-0.8-0.6-1.4-0.6-2,0.3
			c-0.2,0-0.5,0.1-0.7,0.1c-0.1-0.3-0.1-0.8-0.5-0.7c-0.4,0.1,0.1,0.5,0,0.8c-2.5,0.6-5,1.1-7.3,2.2c-0.9,0.5-2.2,0.9-2.1,2.2
			c0,1.2,1.2,1.6,2.1,2.1c1.9,0.9,4.1,1.4,6.1,1.9c-0.4,1.2-1.6,1.8-2.4,2.8c-0.6,0.8-1.6,1.3-2,2.3l0,0c-0.4,0-0.5,0.2-0.5,0.6
			c-4.9-0.9-9.7-2-14-4.7c-0.5-0.3-1.3-0.1-1.3-0.9c-0.9-1.7-0.8-3.2,0.9-4.4C376.2-73.1,376.8-73.5,377.4-73.9z M398.6-78.2
			c-0.1,0-0.1-0.1-0.2-0.1c0,0.1-0.1,0.1-0.1,0.2c0,0,0.1,0.1,0.2,0.1C398.5-78,398.6-78.1,398.6-78.2z M393.5-77.3
			c-0.1,0-0.2-0.1-0.4-0.1c-0.1,0-0.2,0.1-0.2,0.1c0.1,0.2,0.2,0.1,0.4,0.1C393.3-77.2,393.4-77.2,393.5-77.3z M389.4-76.6
			c-0.1,0-0.1-0.1-0.2-0.1c-0.1,0-0.1,0.1-0.2,0.1c0.1,0,0.1,0.1,0.2,0.1S389.3-76.5,389.4-76.6z M403.8-79.2c-0.1,0-0.1,0-0.2,0
			C403.7-79.2,403.7-79.1,403.8-79.2C403.8-79.1,403.8-79.2,403.8-79.2z M389.9-76.1c-0.1,0-0.1,0-0.2,0
			C389.8-76.1,389.8-76,389.9-76.1C389.8-76,389.9-76,389.9-76.1z"/>
		<path class="st6" d="M486.1-67.8c-1.7,1.5-3.7,2.2-5.8,2.9c-6.5,2.2-13.1,3.2-19.9,3.9c0-0.1,0-0.3,0-0.4l0,0
			c0.5,0,0.7-0.3,0.7-0.7l0,0c0.7-0.1,1.1-0.5,1.2-1.2l0,0c0.5,0,0.7-0.3,0.7-0.7l0,0c0.7-0.1,1.1-0.5,1.2-1.2l0,0
			c0.5,0,0.7-0.3,0.7-0.7l0,0c0.7-0.1,1.1-0.5,1.2-1.2l0,0c0.7-0.2,1.2-0.7,1.5-1.4c0.3-0.1,0.7-0.2,1-0.3c2.1-0.6,4.4-1.1,6.1-2.6
			c0.6-0.1,1,0.4,1.4,0.8c1.4,1.3,2.5,2.9,4.2,3.9c0.1,0.1,0.1,0.2,0.2,0.3c0,0.2,0.1,0.4,0.3,0.4c0,0,0.1,0,0.1-0.1
			c0-0.3-0.2-0.3-0.4-0.3c-0.1-0.1-0.2-0.2-0.2-0.2c-1.5-2-3.3-3.7-5.2-5.3c0-0.9-0.6-1.4-1.3-1.9c0-0.2,0-0.5,0-0.7l0,0
			c1-0.4,1.6-1.2,2.2-2c3.3,0.7,6.5,1.7,9.4,3.6c0.7,0.4,1.4,1,1.7,1.8c-0.5,0.2-1.2,0.6-1,1.1C486.4-69.4,486-68.6,486.1-67.8z"/>
		<path class="st6" d="M450.8-60c-8.7,0.7-17.4,0.8-26.1,0.6c-0.6,0-1.3-0.1-1.9-0.1c0.3-0.7,1.3-1,1.4-1.9l0,0
			c0.3,0,0.5-0.2,0.5-0.5l0,0c0.8-0.2,1.2-0.9,1.7-1.4l0,0c0.1-0.1,0.2-0.2,0.2-0.3l0,0c0.6-0.5,1.3-0.9,1.4-1.7l0,0
			c0.2,0,0.4,0,0.5-0.3c1.3,0,2.6,0,3.8-0.1c4.4-0.1,8.8-0.2,13.2-0.3c0.5,0.9,1.2,1.7,2.2,2.1l0,0c0,0.3,0.2,0.5,0.5,0.5l0,0
			c0.2,0.7,0.7,1.2,1.4,1.4l0,0c0,0.3,0.2,0.5,0.5,0.5l0,0C450-60.7,450.7-60.5,450.8-60z"/>
		<path class="st6" d="M459.9-60.9c-2.8,0.4-5.6,0.7-8.4,0.8c-0.4-0.5-0.7-1.1-1.4-1.2l0,0c0-0.3-0.2-0.5-0.5-0.5l0,0
			c-0.2-0.7-0.7-1.2-1.4-1.4l0,0c0-0.3-0.2-0.5-0.5-0.5l0,0c-0.1-1-1.4-1.2-1.4-2.2c0.4-0.1,0.9-0.1,1.3-0.2
			c6.5-0.4,12.9-1.1,19.3-2.3c-0.1,0.5-0.7,0.7-0.7,1.3l0,0c-0.7,0.1-1.1,0.5-1.2,1.2l0,0c-0.5,0-0.7,0.3-0.7,0.7l0,0
			c-0.7,0.1-1.1,0.5-1.2,1.2l0,0c-0.5,0-0.7,0.3-0.7,0.7l0,0c-0.7,0.1-1.1,0.5-1.2,1.2l0,0c-0.5,0-0.7,0.3-0.7,0.7l0,0
			C460.1-61.3,459.9-61.2,459.9-60.9z"/>
		<path class="st0" d="M404.9-78c0.7-0.8,0.7-1.4-0.3-1.9c6.2-0.7,12.5-1,18.8-1.2c5.3-0.2,10.5-0.1,15.8,0c0.6,0.1,1.1,0.1,1.7,0.2
			c0.2,0.9,1.1,1.1,1.4,1.8c-0.4,0.3-1.1-0.4-1.5,0.3l0,0c-0.3-0.6-0.9-0.3-1.4-0.3c-0.1,0-0.2-0.1-0.4-0.1
			C427.7-79.5,416.3-79.1,404.9-78z"/>
		<path class="st0" d="M447.7-80.8c0.2,0,0.3,0,0.5,0c3.6,0.3,7.2,0.6,10.7,1c3,0.3,6,0.7,8.9,1.2c2.6,0.5,5.2,0.7,7.8,1.6
			c-0.4,0.9-1.5,1.2-1.7,2.2l0,0c-0.3,0-0.4,0.1-0.5,0.4c-0.7-0.3-1.5-0.6-2.2-0.9c-5.9-1.8-11.9-2.5-18-3.1
			c-3.2-0.3-6.5-0.5-9.8-0.8c-0.1-0.9-1.2-1-1.4-1.8v-0.1h-0.1c0.3,0,0.7,0,1,0c0.2,0.1,0.5,0.2,0.7,0.2c0.1,0.2,0.2,0.4,0.4,0.6
			c0.4,0.3,0.8,1.2,1.3,0.8c0.5-0.5-0.5-0.8-0.6-1.2c0,0,0-0.1-0.1-0.1c0.4,0,0.8-0.1,1.2-0.1C446.4-80.8,447-80.8,447.7-80.8z"/>
		<path class="st7" d="M377.4-73.9c-0.6,0.4-1.2,0.8-1.7,1.2c-1.7,1.2-1.8,2.7-0.9,4.4c-0.6,0.3-1.4-0.2-1.8,0.7
			c0.3-1.3,0.4-2.5,0-3.7c-0.1-0.5,0.3-0.8,0.9-0.9c0.5-0.1,1.1-0.2,1-1c0-0.1,0.1-0.3,0.1-0.3C375.7-73.3,376.4-74.4,377.4-73.9z"
			/>
		<path class="st0" d="M486.1-67.8c0-0.8,0.4-1.6,0.1-2.5c-0.2-0.6,0.5-0.9,1-1.1C487.9-70.1,487.6-69,486.1-67.8z"/>
		<path class="st7" d="M440.9-80.9c-0.6-0.1-1.1-0.1-1.7-0.2c0.1-0.5,0.6-0.8,1-1.1c0.6-0.5,1.4,0.1,1.7,1.2h0.1v0.1
			C441.6-80.9,441.3-80.9,440.9-80.9z"/>
		<path class="st8" d="M473.8-74.7c0.2-1,1.3-1.3,1.7-2.2c0.2,0.1,0.3,0.1,0.5,0.2C475.4-75.9,474.8-75.1,473.8-74.7z"/>
		<path class="st8" d="M424.1-61.3c-0.1,0.9-1.1,1.2-1.4,1.9c-0.2,0-0.3,0-0.5,0C422.6-60.3,423.2-61,424.1-61.3z"/>
		<path class="st8" d="M450.1-61.3c0.7,0.1,1.1,0.7,1.4,1.2c-0.2,0.1-0.5,0.2-0.7,0.1C450.7-60.5,450-60.7,450.1-61.3z"/>
		<path class="st0" d="M391.4-78.1c0,0.4-0.1,0.8-0.6,0.8c-0.4,0-0.3-0.4-0.3-0.6C390.8-77.9,391.1-78,391.4-78.1z"/>
		<path class="st0" d="M392.4-78.2c0.1,0.3,0.4,0.7-0.1,0.7c-0.4,0.1-0.5-0.3-0.3-0.6C392.1-78.3,392.2-78.3,392.4-78.2z"/>
		<path class="st0" d="M390-77.8c0,0.2,0.1,0.5-0.2,0.6c-0.3,0.1-0.4-0.2-0.4-0.4C389.6-77.7,389.8-77.7,390-77.8z"/>
		<path class="st0" d="M401.6-79.6c0,0.5-0.4,0.5-0.7,0.5l0,0c0-0.1,0-0.3-0.1-0.4C401.1-79.5,401.3-79.5,401.6-79.6z"/>
		<path class="st8" d="M390-62.7c0-0.3,0.1-0.6,0.5-0.6c0,0.2,0,0.5,0,0.7C390.4-62.5,390.2-62.5,390-62.7z"/>
		<path class="st0" d="M400.9-79.1c-0.4,0.4-0.6,0.2-0.7-0.3c0.2,0,0.3-0.1,0.5-0.1C400.7-79.3,400.8-79.2,400.9-79.1L400.9-79.1z"
			/>
		<path class="st8" d="M459.9-60.9c0-0.3,0.2-0.4,0.5-0.4c0,0.1,0,0.3,0,0.4C460.2-60.9,460.1-60.9,459.9-60.9z"/>
		<path class="st0" d="M403-79.7c-0.1,0.4-0.3,0.5-0.5,0.1C402.7-79.7,402.8-79.7,403-79.7z"/>
		<path class="st0" d="M394.4-78.6c0,0.2,0,0.3-0.2,0.4c-0.2,0-0.2-0.1-0.3-0.3C394.1-78.5,394.2-78.5,394.4-78.6z"/>
		<path class="st6" d="M400.9-79.1c-0.1-0.1-0.2-0.3-0.3-0.4c0.1-0.1,0.1-0.1,0.2,0C400.8-79.3,400.8-79.2,400.9-79.1z"/>
		<path class="st8" d="M444.5-80.8C444.5-80.8,444.5-80.7,444.5-80.8c0.3,0.6,1.3,0.9,0.7,1.3c-0.4,0.4-0.8-0.5-1.3-0.8
			c-0.2-0.1-0.3-0.4-0.4-0.6C443.9-80.9,444.2-80.9,444.5-80.8z"/>
		<path class="st9" d="M447.7-80.8c-0.6,0-1.3-0.1-1.9-0.1C446.4-81.8,447.1-81.6,447.7-80.8z"/>
		<path class="st10" d="M443.1-76.7c0.2-0.1,0.3-0.2,0.3-0.3c0.1-0.1,0-0.3-0.2-0.3c-0.1,0-0.2,0.2-0.3,0.3
			C442.9-77,443-76.8,443.1-76.7z M443.8-78.1L443.8-78.1L443.8-78.1C443.6-78.1,443.7-78.1,443.8-78.1
			C443.7-78,443.7-78.1,443.8-78.1z"/>
		<path class="st8" d="M394.9-68.3c0.2,0.1,0.5,0.1,0.7,0.2c-1.5,1.8-3.1,3.6-5.1,5c0.3-1.1,1.3-1.5,2-2.3
			C393.3-66.5,394.5-67.1,394.9-68.3z"/>
		<path class="st8" d="M426.3-63.2c-0.5,0.6-0.9,1.3-1.7,1.4C424.9-62.6,425.4-63.2,426.3-63.2z"/>
		<path class="st8" d="M428-65.2c-0.2,0.8-0.9,1.2-1.4,1.7C426.6-64.4,427.2-64.9,428-65.2z"/>
		<path class="st8" d="M428-65.5c0.2-0.1,0.4-0.1,0.5,0c-0.1,0.3-0.3,0.3-0.5,0.3C428-65.3,428-65.4,428-65.5z"/>
		<path class="st8" d="M424.6-61.8c0,0.3-0.2,0.5-0.5,0.5C424.1-61.6,424.3-61.8,424.6-61.8z"/>
		<path class="st8" d="M426.5-63.5c-0.1,0.1-0.2,0.2-0.2,0.3C426.4-63.3,426.5-63.4,426.5-63.5z"/>
		<path class="st0" d="M399.2-77.2c-0.7,0.1-1.3,0.2-2,0.3C397.8-77.8,398.4-77.9,399.2-77.2z"/>
		<path class="st0" d="M396.6-76.8c-0.2,0-0.3,0.1-0.5,0.1c0.1-0.3-0.4-0.7,0-0.8S396.5-77.1,396.6-76.8z"/>
		<path class="st0" d="M403-77.8c-0.2,0.2-0.4,0.2-0.6,0.1c0-0.3-0.1-0.6,0.3-0.6C403-78.3,403-78,403-77.8z"/>
		<path class="st0" d="M398.6-78.2c0,0.1-0.1,0.1-0.1,0.2c-0.1,0-0.2,0-0.2-0.1c0,0,0-0.1,0.1-0.2C398.5-78.2,398.5-78.2,398.6-78.2
			z"/>
		<path class="st0" d="M393.5-77.3c-0.1,0.1-0.1,0.1-0.2,0.1c-0.1,0-0.3,0.1-0.4-0.1c0,0,0.1-0.1,0.2-0.1
			C393.2-77.4,393.3-77.3,393.5-77.3z"/>
		<path class="st0" d="M389.4-76.6c-0.1,0-0.1,0.1-0.2,0.1c-0.1,0-0.1-0.1-0.2-0.1c0.1,0,0.1-0.1,0.2-0.1
			C389.3-76.6,389.3-76.6,389.4-76.6z"/>
		<path class="st0" d="M403.8-79.2C403.8-79.2,403.8-79.1,403.8-79.2c-0.1,0-0.2,0-0.2,0C403.7-79.2,403.8-79.2,403.8-79.2z"/>
		<path class="st0" d="M389.9-76.1C389.9-76,389.8-76,389.9-76.1c-0.1,0-0.2,0-0.2,0C389.8-76.1,389.9-76.1,389.9-76.1z"/>
		<path class="st8" d="M474.7-71.4c0.1-0.2,0.3-0.5,0.4-0.7c1.9,1.6,3.7,3.3,5.2,5.3l0,0c-1.7-1-2.8-2.6-4.2-3.9
			C475.7-71,475.4-71.5,474.7-71.4z"/>
		<path class="st8" d="M466.8-68.4c0.2-0.2,0.5-0.1,0.7-0.1c-0.3,0.7-0.7,1.2-1.5,1.4C466.1-67.6,466.8-67.8,466.8-68.4z"/>
		<path class="st8" d="M463-64c0.1-0.7,0.5-1.1,1.2-1.2C464.1-64.5,463.7-64.1,463-64z"/>
		<path class="st8" d="M464.9-65.9c0.1-0.7,0.5-1.1,1.2-1.2C466-66.4,465.6-66,464.9-65.9z"/>
		<path class="st8" d="M461.1-62c0.1-0.7,0.5-1.1,1.2-1.2C462.2-62.6,461.8-62.2,461.1-62z"/>
		<path class="st8" d="M462.3-63.2c0-0.5,0.3-0.7,0.7-0.7C463-63.5,462.8-63.2,462.3-63.2z"/>
		<path class="st8" d="M464.2-65.1c0-0.5,0.3-0.7,0.7-0.7C464.9-65.4,464.7-65.2,464.2-65.1z"/>
		<path class="st8" d="M460.4-61.3c0-0.5,0.3-0.7,0.7-0.7C461.1-61.6,460.8-61.3,460.4-61.3z"/>
		<path class="st8" d="M473.8-74.1c-0.2-0.1-0.3-0.2-0.5-0.3c0.1-0.3,0.3-0.4,0.5-0.4C473.8-74.5,473.8-74.3,473.8-74.1z"/>
		<path class="st8" d="M480.6-66.6c0.2,0,0.4,0.1,0.4,0.3c0,0,0,0.1-0.1,0.1C480.6-66.2,480.5-66.4,480.6-66.6L480.6-66.6z"/>
		<path class="st8" d="M480.5-66.6c-0.1-0.1-0.1-0.2-0.2-0.3l0,0C480.4-66.8,480.5-66.7,480.5-66.6
			C480.6-66.6,480.5-66.6,480.5-66.6z"/>
		<path class="st8" d="M445.5-65.8c0.2,0,0.5,0,0.7-0.1c0.1,1,1.3,1.2,1.4,2.2C446.7-64.1,446-64.9,445.5-65.8z"/>
		<path class="st8" d="M448.1-63.2c0.7,0.2,1.2,0.7,1.4,1.4C448.8-62,448.4-62.5,448.1-63.2z"/>
		<path class="st8" d="M447.7-63.7c0.3,0,0.5,0.2,0.5,0.5C447.8-63.2,447.7-63.4,447.7-63.7z"/>
		<path class="st8" d="M449.6-61.8c0.3,0,0.5,0.2,0.5,0.5C449.7-61.3,449.6-61.5,449.6-61.8z"/>
		<path class="st7" d="M442.9-79c0,1.6-0.3,1.8-1.9,1.4l0,0c0-0.4,0-0.8,0-1.1c0.4-0.7,1,0,1.5-0.3C442.5-79.1,442.7-79.1,442.9-79z
			"/>
		<path class="st7" d="M440.9-77.6c0.1,1,1,0.8,1.6,1.2c-1.4,0.6-2.9-0.7-3-2.6c0.5,0,1-0.4,1.4,0.3C440-78.3,440.2-78,440.9-77.6
			L440.9-77.6z"/>
		<path class="st8" d="M442.9-79c-0.2,0-0.3-0.1-0.5-0.1c-0.3-0.7-1.3-0.9-1.4-1.8c0.3,0,0.7,0,1,0c0.2,0.8,1.3,0.9,1.4,1.8
			C443.2-79.1,443-79,442.9-79z"/>
		<path class="st10" d="M440.9-77.6c-0.8-0.3-1-0.7-0.1-1.1l0,0C440.9-78.4,440.9-78,440.9-77.6z"/>
		<path class="st7" d="M443.1-76.7c-0.1-0.2-0.2-0.3-0.1-0.3c0.1-0.1,0.2-0.3,0.3-0.3c0.2,0,0.3,0.1,0.2,0.3
			C443.4-76.9,443.3-76.8,443.1-76.7z"/>
		<path class="st7" d="M443.8-78.1C443.7-78.1,443.7-78,443.8-78.1C443.7-78.1,443.7-78.1,443.8-78.1L443.8-78.1
			C443.7-78.1,443.7-78.1,443.8-78.1z"/>
	</g>
</g>
<g>
	<path d="M183.7,21.9c2.1-1.8,4.7-3.1,7.5-3.9c1.4-0.3,2.9-0.6,4.3-0.6c1.5,0,2.9,0,4.4,0.3c2.9,0.5,5.7,1.6,8.2,3.2
		c1.2,0.8,2.4,1.8,3.5,3c0.5,0.6,1.1,1.2,1.5,2c0.4,0.8,0.8,1.5,1.1,2.2c1.1,3,1,6.2,0.4,9.1c-0.6,3-1.9,5.8-3.7,8
		c-0.9,1.2-2,2.3-3.1,3.1c-1.2,0.9-2.4,1.6-3.6,2.3c-2.5,1.3-5.2,2.3-8,2.5l0,0c0,0-0.1,0-0.1-0.1c0,0,0-0.1,0-0.1
		c2.6-0.7,5.1-1.8,7.4-3.3c1.2-0.7,2.3-1.5,3.3-2.4c1-0.9,1.9-1.9,2.7-3c1.5-2.2,2.7-4.7,3-7.4c0.5-2.7,0.5-5.4-0.5-7.9
		c-0.2-0.6-0.5-1.2-0.8-1.8c-0.3-0.6-0.8-1.1-1.2-1.6c-0.9-1-1.9-1.8-3-2.7c-2.2-1.5-4.7-2.7-7.4-3.2c-1.4-0.3-2.7-0.5-4-0.5
		c-1.4,0-2.7,0-4.1,0.3c-2.7,0.5-5.2,1.5-7.5,2.9c0,0-0.1,0-0.2,0C183.6,22.1,183.6,22,183.7,21.9L183.7,21.9z"/>
</g>
<g>
	<path d="M196.1,24.1c-0.8,1.3-1.7,2.4-2.7,3.5c-1,1.1-1.9,2.1-3,3c-1.1,0.9-2.3,1.7-3.4,2.7c-1.1,1-2,2.1-3,3.2
		c-0.9,1.2-1.8,2.3-2.9,3.3c-1,1.1-2,2.1-3,3.1c-1.1,1-2.1,2-3.2,2.9c-0.6,0.5-1.1,0.9-1.7,1.4c-0.3,0.2-0.6,0.5-0.9,0.6l-0.5,0.3
		l-0.2,0.2l-0.1,0l0,0l0,0l0,0l0,0c0,0,0-0.2-0.1-0.1c0,0,0.1,0,0.1,0c0,0,0,0.1,0,0.1c-0.2,0-0.2-0.2-0.1-0.1l0,0l0,0v0l0,0l0-0.1
		l0.2-0.2l0.3-0.5c0.2-0.3,0.4-0.6,0.6-0.9c0.5-0.6,0.9-1.2,1.4-1.7c0.9-1.1,1.9-2.2,2.9-3.2c1-1.1,2.1-2,3.1-3
		c1.1-1,2.2-1.9,3.3-2.9c1.2-0.9,2.2-1.8,3.2-2.9c1-1.1,1.8-2.3,2.8-3.3c0.9-1.1,2-2.1,3.1-3c1.1-0.9,2.3-1.8,3.5-2.7
		c0,0,0.1,0,0.1,0C196.1,24,196.1,24,196.1,24.1z"/>
</g>
<g>
	<path d="M200.9,25.5c-0.7,1.2-1.5,2.3-2.3,3.3c-0.9,1.1-1.7,2.1-2.7,3c-1,0.9-2.1,1.7-3,2.7c-1,0.9-1.8,2-2.6,3s-1.6,2.2-2.5,3.2
		c-0.9,1.1-1.7,2.1-2.7,3c-0.9,1-1.9,1.9-3,2.8c-0.5,0.5-1.1,0.9-1.5,1.4c-0.2,0.2-0.5,0.4-0.8,0.6l-0.4,0.3l-0.2,0.2l-0.1,0l0,0
		l0,0l0,0l-0.1-0.1c0,0,0.1,0,0.1,0s0,0.1,0,0.1c-0.2-0.2,0,0-0.1-0.1l0,0l0,0v0l0,0l0-0.1l0.1-0.2l0.3-0.5c0.2-0.3,0.3-0.6,0.6-0.9
		c0.4-0.6,0.8-1.1,1.2-1.6c0.8-1.1,1.7-2.1,2.6-3.1c0.9-1,1.8-2,2.9-2.9c0.9-0.9,2-1.8,3-2.7c1.1-0.9,2-1.8,2.9-2.9
		c0.9-1.1,1.6-2.2,2.4-3.2c0.8-1.1,1.8-2,2.8-2.9s2-1.8,3.2-2.6c0,0,0.1,0,0.1,0C201,25.4,201,25.5,200.9,25.5z"/>
</g>
<g>
	<path d="M203,31.8c-0.4,0.9-0.9,1.5-1.5,2.3c-0.6,0.7-1.1,1.4-1.8,1.9c-0.7,0.5-1.5,1-2.1,1.5c-0.6,0.6-1.2,1.3-1.7,2
		c-0.5,0.8-1.1,1.5-1.6,2.1c-0.6,0.7-1.2,1.4-1.8,2c-1.3,1.2-2.7,2.3-4.3,3.1c0,0-0.1,0-0.1,0v0c0.8-1.6,1.9-3,3.1-4.4
		c0.6-0.6,1.3-1.2,1.9-1.8c0.6-0.6,1.4-1.1,2.1-1.6c0.8-0.5,1.4-1.1,2-1.7c0.6-0.6,1-1.5,1.5-2.2c0.5-0.7,1.2-1.3,1.9-1.8
		c0.7-0.5,1.4-1.1,2.3-1.5C202.9,31.7,203,31.7,203,31.8C203,31.7,203,31.7,203,31.8z"/>
</g>
<g>
	<path d="M175,29.2c1.4-0.2,2.6-0.2,3.8-0.2s2.5,0,3.8,0c1.3,0.1,2.6,0.3,3.8,0.3c1.3,0,2.6,0,3.8-0.1c1.3-0.1,2.6-0.2,3.9-0.2
		c1.3,0,2.6,0,3.8,0.2c2.5,0.3,5,0.5,7.5,1c0,0,0,0,0,0.1c0,0,0,0,0,0c-1.3,0.3-2.6,0.5-3.8,0.6s-2.6,0.1-3.9,0
		c-1.3-0.1-2.5-0.3-3.8-0.5c-0.6,0-1.3-0.1-1.9-0.2c-0.6,0-1.3-0.2-1.9-0.3c-1.3-0.2-2.6-0.3-3.8-0.3c-1.3,0-2.5,0.4-3.8,0.5
		c-1.3,0.1-2.6,0-3.9-0.2C177.4,30,176.1,29.7,175,29.2c-0.1,0-0.1,0-0.1-0.1C174.9,29.3,174.9,29.2,175,29.2z"/>
</g>
<g>
	<path d="M175.7,35.6c1.1-0.5,2.2-0.8,3.3-1c1.2-0.2,2.4-0.2,3.5,0c1.1,0.2,2.1,0.6,3.3,0.8c0.6,0,1.1,0,1.7,0
		c0.6,0,1.1-0.2,1.7-0.3c1.2-0.2,2.3-0.3,3.4-0.3c1.1,0,2.3,0,3.5,0c2.3,0.3,4.5,1.1,6.5,2.3c0,0,0,0,0,0.1l0,0
		c-2.3-0.2-4.5-0.5-6.7-0.6c-2.1-0.2-4.4-0.3-6.6-0.6c-1.1,0-2.3-0.1-3.4-0.1s-2.3,0.2-3.4,0.1c-0.6,0-1.1,0-1.6-0.1l-1.6,0
		c-1.1,0-2.2,0-3.3-0.2c0,0,0,0,0-0.1C175.7,35.6,175.7,35.6,175.7,35.6z"/>
</g>
<g>
	<path d="M170.9,42c1.2,0,2.3,0,3.4,0c0.5,0,1.1,0,1.6-0.1c0.5,0,1.1-0.1,1.7-0.2c1.2,0,2.4,0.2,3.5,0.3c1.2,0.1,2.3,0.1,3.5,0
		c1.2-0.1,2.3-0.1,3.4-0.1c1.2,0,2.3,0,3.3-0.1c1.1,0,2.3,0,3.5,0c0.6,0,1.2,0.2,1.7,0.3c0.6,0.1,1.2,0.2,1.7,0.4c0,0,0,0,0,0.1
		c0,0,0,0,0,0l0,0c-1.2,0.3-2.3,0.3-3.4,0.5c-1.2,0.1-2.2,0.3-3.3,0.4c-1.2,0.1-2.4,0-3.5-0.1c-1.2-0.1-2.3-0.3-3.4-0.6
		c-1.2-0.2-2.3-0.4-3.4-0.4c-1.2,0-2.3,0.3-3.3,0.5c-0.5,0.1-1.2,0.2-1.7,0.2c-0.6,0-1.2,0-1.8-0.1C173.1,43,172,42.7,170.9,42
		C170.9,42.1,170.9,42,170.9,42C170.8,42.1,170.9,42,170.9,42z"/>
</g>
<ellipse class="st11" cx="201" cy="9.8" rx="17.9" ry="3.2"/>
</svg>
