<?xml version="1.0" encoding="utf-8"?>
<!-- Generator: Adobe Illustrator 22.0.0, SVG Export Plug-In . SVG Version: 6.00 Build 0)  -->
<svg version="1.1" xmlns="http://www.w3.org/2000/svg" xmlns:xlink="http://www.w3.org/1999/xlink" x="0px" y="0px"
	 viewBox="0 0 643.2 546.7" style="enable-background:new 0 0 643.2 546.7;" xml:space="preserve">
<style type="text/css">
	.st0{fill:#FEFFFF;}
	.st1{fill:#201813;}
</style>
<g id="Capa_1">
	<path class="st0" d="M23,696.9c-1.7,0.1-3.4,0.1-5,0.2c0.8-1.1,1.6-2.2,2.4-3.2C21.4,694.7,22.3,695.7,23,696.9z"/>
	<g>
		<path class="st1" d="M349.7,71.8l40.4,1.1l10.1,0.3c3.5,0.1,6.8,0.3,10.2,0.5l20.3,1.2l20.3,1.3l20.3,1.3
			c6.8,0.4,13.5,0.9,20.3,1.4c6.8,0.5,13.6,1,20.4,1.7c3.4,0.3,6.8,0.7,10.2,1.1c1.7,0.2,3.4,0.5,5.1,0.7c1.7,0.2,3.5,0.5,5.1,0.7
			c6.7,1.1,13.4,2.2,20.1,3.3c6.7,1.2,13.4,2.4,20.1,3.8l5.1,1.1l2.6,0.6l0.8,0.2c0,0,0.4,0.1,0.5,0.2l0.2,0.1l0.4,0.1
			c0.5,0.2,0.9,0.4,1.4,0.5c1.8,0.7,3.6,1.6,5.4,2.7c1.8,1.1,3.6,2.3,5.4,4.4c0.9,1,1.8,2.3,2.4,4c0.6,1.7,0.9,3.8,0.5,5.8
			c-0.1,0.5-0.2,1-0.3,1.4l-0.2,0.7c-0.1,0.2-0.2,0.6-0.4,0.8c-0.1,0.3-0.3,0.6-0.5,0.9l-0.3,0.4c-0.1,0.1-0.1,0.2-0.2,0.3
			c-0.3,0.4-0.6,0.7-0.9,1.1c-0.3,0.3-0.6,0.5-0.9,0.8c-0.3,0.2-0.6,0.5-0.8,0.7c-0.5,0.4-1.1,0.8-1.5,1c-1.9,1.2-3.7,2-5.4,2.8
			c-1.7,0.7-3.4,1.4-5.1,2c-6.8,2.4-13.4,4.2-20.2,5.8c-3.4,0.8-6.7,1.6-10.1,2.4c-1.9,0.4-3.5,0.7-5.2,1l-5.1,0.9
			c-6.8,1.1-13.5,2.2-20.3,3.1c-13.5,1.9-27.1,3.6-40.6,5c-13.6,1.4-27.2,2.6-40.8,3.5c-27.2,1.9-54.5,2.8-81.9,2.7
			c-6.8,0-13.6-0.1-20.4-0.2c-6.8-0.1-13.6-0.3-20.4-0.5c-13.6-0.4-27.2-1.1-40.9-1.9c-13.6-0.9-27.3-2-41-3.5
			c-3.4-0.4-6.8-0.8-10.3-1.2l-5.1-0.7l-5.2-0.8c-1.7-0.2-3.4-0.5-5.2-0.8c-1.7-0.3-3.5-0.6-5.2-0.9c-1.7-0.3-3.5-0.6-5.3-1
			c-0.9-0.2-1.8-0.4-2.7-0.6l-1.4-0.3l-1.6-0.4l1,0.2l-2-0.4l-1.9-0.4c-1.2-0.3-2.5-0.6-3.7-0.9c-2.5-0.6-5-1.3-7.4-2.1
			c-2.5-0.8-5-1.6-7.6-2.6c-2.6-1-5.2-2.2-8-3.7l-1.1-0.6l-0.5-0.3c-0.2-0.1-0.5-0.3-0.7-0.5c-0.5-0.4-1-0.6-1.6-1.1l-0.8-0.7
			l-0.4-0.4l-0.5-0.4c-0.3-0.3-0.6-0.6-0.9-0.9c-0.3-0.3-0.6-0.7-0.9-1.1c-0.3-0.4-0.6-0.7-0.9-1.2c-0.3-0.5-0.6-1-0.9-1.5
			c-0.3-0.5-0.6-1.1-0.8-1.7c-0.2-0.6-0.5-1.2-0.6-1.9c-0.4-1.4-0.5-2.8-0.5-4.2c0-2.8,0.8-5.2,1.6-7c0.9-1.8,1.8-3.1,2.7-4.2
			c1.8-2.1,3.4-3.4,4.9-4.5c1.5-1.1,2.9-2,4.4-2.8l1.1-0.6l0.6-0.3l0.9-0.4l0.5-0.2l0.3-0.1l0.6-0.2l1.1-0.4c0.7-0.3,1.3-0.4,2-0.7
			c0.7-0.2,1.3-0.4,1.9-0.6c1.3-0.4,2.5-0.7,3.7-1c4.9-1.3,9.8-2.3,14.6-3.2c2.4-0.5,4.8-0.8,7.2-1.3l7.2-1.1
			c9.6-1.4,19.1-2.4,28.7-3.3c19.1-1.7,38-2.8,57-3.6c9.5-0.4,19-0.7,28.6-0.9c4.8-0.1,9.6-0.1,14.4-0.1c2.4,0,4.8,0.1,7.2,0.1
			l3.7,0.1l1.9,0.1l1,0.1C349.2,71.8,349.7,71.8,349.7,71.8z M349.2,87.2l-1,0l-0.8,0l-1.7,0l-3.4,0c-2.3,0-4.6,0.1-6.9,0.2
			c-4.6,0.2-9.3,0.4-13.9,0.7c-9.3,0.6-18.6,1.4-27.9,2.3c-9.3,0.9-18.6,2-27.9,3.1c-9.3,1.1-18.5,2.4-27.7,3.8
			c-9.2,1.5-18.3,3.1-27.3,4.9c-9,1.8-17.9,3.9-26.2,6.5c-1,0.3-2.1,0.6-3,1c-0.5,0.2-1,0.3-1.4,0.5c-0.5,0.2-0.9,0.3-1.3,0.5
			l-0.6,0.2l-0.2,0.1l-0.1,0l0.1-0.1l0.1-0.1l0,0l-0.1,0l-0.2,0.1l-0.4,0.3c-0.6,0.4-1.2,0.8-1.5,1.1c-0.4,0.3-0.5,0.6-0.3,0.3
			c0.2-0.2,0.4-0.5,0.8-1.2c0.4-0.8,0.8-2,0.8-3.6c0-0.8-0.1-1.7-0.3-2.5c-0.1-0.4-0.2-0.7-0.3-1.1c-0.1-0.3-0.3-0.7-0.4-0.9
			c-0.1-0.3-0.3-0.5-0.4-0.7c-0.2-0.2-0.2-0.4-0.4-0.5c-0.1-0.1-0.3-0.3-0.4-0.4c-0.1-0.1-0.2-0.2-0.3-0.3l-0.1-0.1
			c0,0,0-0.1-0.1-0.1c0,0-0.1-0.1-0.1-0.1c-0.1-0.1-0.1-0.1-0.1-0.1c0,0-0.1,0,0,0l0.2,0.1l0.5,0.2c1.3,0.7,3,1.4,4.9,2
			c1.8,0.7,3.8,1.3,5.8,1.8c2,0.6,4.1,1.1,6.2,1.6l3.2,0.7l1.6,0.3l1.4,0.3l1,0.2l0.8,0.2l1.1,0.2c0.8,0.1,1.5,0.3,2.3,0.4
			c1.5,0.3,3.1,0.6,4.7,0.8c1.6,0.3,3.2,0.5,4.8,0.8c1.6,0.2,3.2,0.5,4.8,0.7l4.9,0.7l4.9,0.6c3.3,0.4,6.6,0.8,9.9,1.2
			c13.2,1.5,26.5,2.7,39.9,3.8c26.7,2.1,53.6,3.6,80.4,4.8c26.8,1.2,53.6,1.5,80.4,1.1l10.1-0.2l10.1-0.3l5-0.1l5-0.2l10.1-0.4
			c13.4-0.7,26.8-1.5,40.2-2.7c6.7-0.6,13.3-1.3,20-2l5-0.6c1.6-0.2,3.4-0.4,4.8-0.6c3.2-0.5,6.5-1.1,9.8-1.8
			c6.5-1.3,12.9-2.8,19-4.7c1.5-0.5,3-1,4.4-1.5c1.4-0.5,2.7-1.1,3.7-1.7c0.3-0.1,0.4-0.2,0.6-0.4c0.1-0.1,0.1-0.1,0.2-0.1
			c0,0,0.1-0.1,0.1,0c0,0-0.1,0.1-0.1,0.1c0,0,0,0,0,0.1c0,0-0.1,0.1-0.1,0.1c-0.1,0.1-0.1,0.2-0.2,0.3c0,0.1-0.1,0.3-0.1,0.3
			c0,0,0,0,0,0.1c0,0,0,0.1,0,0.2c0,0.3,0,0.7,0.1,0.8c0.1,0.1,0,0-0.2-0.3c-0.4-0.5-1.3-1.3-2.4-2c-1.1-0.7-2.3-1.4-3.6-2l-1-0.4
			l-0.2-0.1l-0.1,0l0.2,0.1l-0.4-0.1l-2.4-0.6c-1.6-0.4-3.2-0.8-4.8-1.2c-6.5-1.5-13.1-3-19.6-4.3c-6.6-1.4-13.2-2.6-19.8-3.8
			c-1.7-0.3-3.3-0.6-4.9-0.8c-1.6-0.3-3.2-0.6-4.9-0.8l-5-0.6c-1.6-0.2-3.3-0.4-5-0.6c-6.7-0.7-13.4-1.3-20.1-1.8
			c-6.7-0.5-13.4-0.9-20.2-1.2c-6.7-0.3-13.5-0.6-20.2-0.8c-6.7-0.2-13.5-0.3-20.2-0.4l-20.2-0.1c-3.3,0-6.8,0-10.1,0l-10.2,0.2
			L349.2,87.2z"/>
	</g>
</g>
<g id="Capa_2">
	<g>
		<path d="M209.3,219c5.3-4.3,11-8.2,16.8-12c2.9-1.9,5.9-3.6,8.9-5.3c3-1.7,6.1-3.3,9.2-4.9c6.2-3.2,12.6-5.9,19.1-8.5
			c3.3-1.3,6.6-2.5,9.9-3.6l5-1.7l5.1-1.5c6.8-2,13.7-3.5,20.7-4.9c3.5-0.7,7-1.2,10.6-1.7l10.7-1.3c7.3-0.7,14.5-0.9,21.7-0.9
			l5.4,0l5.4,0.2c3.6,0.1,7.2,0.5,10.8,0.7c1.8,0.1,3.6,0.3,5.4,0.5l5.4,0.6c3.6,0.4,7.2,1.1,10.7,1.6c7.1,1.3,14.2,2.8,21.3,4.7
			c14.2,3.6,28,8.8,41.5,15c6.7,3.3,13.3,6.7,19.6,10.6c6.5,3.8,12.7,7.9,18.9,12.6c6.2,4.7,12.2,10,18,16.1c2.9,3.1,5.7,6.4,8.4,10
			c1.3,1.8,2.6,3.7,3.9,5.6c0.6,0.9,1.2,1.9,1.8,2.8c0.5,0.9,1.1,1.9,1.6,2.8c4.2,7.5,7.5,15.5,9.9,23.6c1.3,4.1,2.2,8.2,3.1,12.3
			l1.1,6.2c0.3,2.1,0.5,4.1,0.7,6.2c0.7,8.2,0.7,16.4,0.1,24.3c-0.3,4-0.7,7.9-1.3,11.7c-0.3,1.9-0.6,3.8-0.9,5.6l-0.5,2.7l-0.6,2.9
			c-1.7,7.8-3.9,15.5-6.7,22.9c-2.8,7.4-6.3,14.5-10.2,21.3c-3.9,6.8-8.2,13.2-12.9,19.1c-2.3,2.9-4.7,5.8-7,8.4
			c-2.5,2.8-5,5.7-7.7,8.4c-1.3,1.3-2.6,2.7-4,4c-1.4,1.3-2.8,2.6-4.2,3.8c-2.9,2.5-5.7,4.9-8.7,7.2c-5.9,4.6-12.1,8.9-18.5,12.5
			c-6.4,3.7-12.8,7-19.3,9.9c-6.5,2.9-12.9,5.5-19.2,7.9c-3.1,1.2-6.5,2.4-9.8,3.6c-3.3,1.1-6.6,2.3-10,3.2
			c-6.7,2-13.4,3.7-20.2,5.1c-6.8,1.4-13.6,2.5-20.5,3.3c-1.7,0.2-3.4,0.3-5.1,0.5c-1.7,0.1-3.4,0.3-5.1,0.4
			c-1.7,0.1-3.4,0.2-5.1,0.3l-5.1,0.1l-0.6-2.9c25.9-5.9,50.9-15.3,74.2-27.9c11.8-6.2,23.4-12.6,34.1-20.3
			c5.4-3.8,10.5-7.9,15.3-12.3c2.5-2.2,4.8-4.5,7.1-6.8c2.2-2.4,4.5-4.8,6.6-7.3c2.2-2.4,4.1-5.1,6.2-7.7c2-2.6,3.9-5.3,5.8-8
			c3.7-5.4,7.2-11,10.1-16.8c6-11.6,10.3-24.1,12.5-36.9c1.2-6.5,2-13,2.4-19.5c0.3-6.5,0.2-13-0.5-19.5c-0.7-6.5-2-12.8-3.9-19
			c-1.9-6.2-4.4-12.2-7.6-17.8c-6.1-11.4-15.5-20.6-25.7-28.7c-5.2-4-10.6-7.8-16.2-11.2c-5.5-3.7-11.3-6.7-17.1-9.9
			c-11.8-5.9-24-10.9-36.6-14.9c-12.6-4-25.4-7-38.5-9.1c-13-2.1-26.2-3.3-39.4-3.2c-13.2,0-26.4,1.2-39.4,3.3
			c-26.1,4.1-51.6,12.4-75.4,24.1L209.3,219z"/>
	</g>
	<g>
		<path d="M339.6,238.2c-4,6.1-8.6,11.6-13.2,16.9c-4.7,5.3-9.5,10.4-14.5,15.4c-5,5-10.1,9.7-15.4,14.3c-5.2,4.6-10.7,9-16.5,13
			c-11.6,7.9-24.6,14.2-35.7,22.7c-2.8,2.1-5.5,4.3-8.2,6.6c-1.3,1.1-2.7,2.3-4,3.4c-1.3,1.2-2.6,2.3-3.9,3.5
			c-5.1,4.8-9.9,9.9-14.7,15.1c-2.4,2.6-4.7,5.2-7.1,7.8c-2.4,2.6-4.8,5.2-7.3,7.7c-4.9,5-10.1,9.8-15.2,14.6
			c-10.2,9.6-20.5,19.2-31.4,27.9c-5.5,4.4-11.1,8.6-16.8,12.7c-5.7,4.1-11.5,8.1-17.3,12c-5.9,3.9-11.8,7.6-17.9,11.2
			c-3.1,1.8-6.1,3.6-9.3,5.3c-1.6,0.9-3.1,1.7-4.7,2.5L84,452l-1.2,0.6l-0.6,0.3l-0.3,0.1l-0.1,0.1c0,0,0,0,0,0
			c0.8-0.1-2.3-3-1.3-1.6c0.2,0.3,0.4,0.6,0.6,0.9l0.6,0.9c0.9,1.4-2.3-1.4-1.4-1.6l0.1-0.1l0.1-0.2l0.2-0.3l0.4-0.6l0.8-1.1
			c0.5-0.7,1.1-1.5,1.6-2.2c1.1-1.4,2.2-2.9,3.3-4.3c2.2-2.8,4.5-5.5,6.8-8.2c4.6-5.4,9.4-10.6,14.2-15.7
			c4.9-5.1,9.8-10.1,14.9-14.9c5-4.9,10.2-9.6,15.5-14.2c10.5-9.2,21.8-17.5,33.1-25.9c5.6-4.2,11.2-8.4,17.1-12.3
			c2.9-2,5.9-3.9,8.9-5.7c3-1.9,6-3.7,9-5.6c6-3.8,11.9-7.5,17.6-11.7c1.4-1,2.8-2.1,4.2-3.2c1.4-1.1,2.8-2.2,4.1-3.3
			c2.7-2.2,5.4-4.5,7.9-6.9c10.4-9.4,19-21,28.8-31c4.9-5,10.2-9.6,15.8-13.9c5.5-4.3,11.1-8.5,16.9-12.5c5.8-4,11.7-7.9,17.8-11.5
			c6.1-3.6,12.4-7,19.1-9.9c0.6-0.2,1.2,0,1.4,0.6C339.8,237.5,339.8,237.9,339.6,238.2z"/>
	</g>
	<g>
		<path d="M390.7,250.7c-3.4,5.9-7.4,11.2-11.4,16.4c-4.1,5.2-8.3,10.1-12.8,14.9c-4.4,4.8-9,9.4-13.7,13.8
			c-4.7,4.5-9.6,8.7-14.9,12.5c-10.6,7.6-22.5,13.7-32.5,21.9c-2.5,2-5,4.1-7.4,6.3c-1.2,1.1-2.4,2.2-3.5,3.3
			c-1.2,1.1-2.3,2.3-3.5,3.4c-4.6,4.6-8.8,9.6-13,14.6c-2.1,2.5-4.2,5.1-6.3,7.6c-2.1,2.5-4.2,5-6.4,7.4c-4.3,4.9-8.9,9.4-13.5,14.1
			c-9.1,9.2-18.2,18.5-28,26.9c-4.9,4.2-10,8.3-15.1,12.2c-5.1,4-10.4,7.8-15.7,11.6c-5.3,3.8-10.8,7.4-16.3,10.9
			c-2.8,1.7-5.6,3.5-8.5,5.1c-1.4,0.8-2.9,1.6-4.3,2.4l-2.2,1.2l-1.1,0.6l-0.5,0.3l-0.3,0.1l-0.1,0.1c0,0,0,0,0,0
			c-0.7,0.2,1.6-0.1-1.2-1.6c0.5-0.2,1.1,0.1,1.4,0.6c0.2,0.5-0.1,1.1-0.6,1.4c-2.9-1.5-0.5-1.9-1.2-1.7l0.1-0.1l0.1-0.2l0.2-0.3
			l0.3-0.6l0.7-1.1c0.5-0.7,0.9-1.4,1.4-2.1c0.9-1.4,1.9-2.8,2.8-4.1c1.9-2.7,3.9-5.4,5.9-8c4-5.2,8.2-10.3,12.5-15.2
			c4.3-4.9,8.7-9.7,13.2-14.4c4.5-4.7,9.1-9.3,13.8-13.8c9.4-8.9,19.6-16.9,29.8-25c5.1-4,10.1-8.1,15.4-11.9
			c2.6-1.9,5.3-3.7,8.1-5.5c2.7-1.8,5.5-3.6,8.2-5.4c5.4-3.6,10.9-7.3,15.9-11.3c1.3-1,2.5-2,3.8-3.1c1.3-1,2.5-2.1,3.7-3.2
			c2.5-2.1,4.8-4.3,7.1-6.6c9.2-9.1,16.6-20.3,25.3-29.9c4.4-4.8,9.1-9.2,14.1-13.4c5-4.2,10-8.2,15.3-12.1
			c5.2-3.9,10.6-7.6,16.2-11.1c5.6-3.5,11.3-6.8,17.5-9.5c0.6-0.2,1.2,0,1.5,0.6C390.9,250,390.8,250.4,390.7,250.7z"/>
	</g>
	<g>
		<path d="M412.2,305.9c-1.9,4.3-4.3,8.1-6.7,11.7c-2.5,3.6-5.2,7-8,10.2c-2.8,3.2-5.8,6.2-8.9,9.1c-3.1,2.9-6.4,5.6-10.1,7.7
			c-7.4,4.4-16,7.3-22.9,12.3c-3.5,2.4-6.6,5.3-9.6,8.3c-3,3-5.7,6.4-8.3,9.9c-2.6,3.5-5.2,7-8,10.3c-2.8,3.3-5.8,6.3-8.8,9.3
			c-3,3-5.9,6.1-9,9c-3.1,2.9-6.2,5.8-9.6,8.4c-3.3,2.6-6.8,5.1-10.4,7.4c-3.5,2.4-7.2,4.6-10.9,6.7c-3.7,2.1-7.6,4.1-11.6,6
			c-4,1.8-8.1,3.6-12.5,4.9c-0.6,0.2-1.2-0.2-1.4-0.8c-0.1-0.3-0.1-0.6,0.1-0.8c2-4.1,4.4-7.9,6.9-11.5c2.5-3.6,5.1-7.1,7.8-10.4
			c2.7-3.3,5.5-6.6,8.5-9.7c2.9-3.1,5.9-6.1,9-9c3.1-2.9,6.4-5.5,9.8-8c3.4-2.5,6.9-4.9,10.4-7.4c3.5-2.4,6.9-4.9,10.7-7.1
			c3.7-2.2,7.6-4.1,11.4-6.1c3.9-2,7.6-4.1,11.1-6.5c3.5-2.4,6.8-5.1,9.8-8.1c6.1-6,10.3-14,15.9-20.5c2.8-3.3,5.9-6.1,9.3-8.7
			c3.4-2.6,6.8-5,10.5-7.3c3.6-2.3,7.4-4.4,11.4-6.2c4-1.8,8.1-3.6,12.7-4.7c0.6-0.2,1.3,0.2,1.4,0.9
			C412.3,305.4,412.3,305.6,412.2,305.9z"/>
	</g>
	<g>
		<path d="M118.1,283.2c6.9-1.3,13.6-1.9,20.3-2.5c6.7-0.5,13.3-0.9,20-1.1c6.6-0.2,13.2-0.3,19.8-0.3c6.6,0,13.1,0.2,19.7,0.8
			c6.5,0.6,13.2,1.6,20,2.6c6.7,1,13.5,1.8,20.1,2.2c3.3,0.2,6.7,0.3,10,0.2c3.3,0,6.7-0.1,10-0.3c6.7-0.3,13.4-1.1,20.1-1.8
			c3.4-0.4,6.7-0.8,10.1-1.1c3.4-0.4,6.7-0.7,10.1-0.9c6.7-0.5,13.5-0.5,20.2-0.5c6.7,0,13.5,0,20.3,0.3c6.7,0.2,13.5,0.7,20,1.4
			c6.6,0.7,13,1.4,19.6,2.2c6.5,0.8,13.1,1.6,19.7,2.5c6.6,0.9,13.2,1.8,19.8,2.9c6.6,1.1,13.3,2.2,20,3.8c0.6,0.1,1,0.7,0.8,1.3
			c-0.1,0.4-0.4,0.7-0.7,0.8c-6.6,2.1-13.3,3.6-20,4.9c-6.7,1.3-13.5,2.2-20.2,2.9c-6.8,0.7-13.5,1.1-20.3,1.3
			c-6.8,0.2-13.7,0.1-20.4-0.3c-6.8-0.4-13.3-1.1-19.9-1.8l-19.7-2.4c-6.6-0.8-13.2-1.4-19.8-2.4c-3.3-0.5-6.6-1-9.9-1.6l-9.9-1.7
			c-6.6-1.1-13.3-2.1-19.9-2.6c-1.7-0.1-3.3-0.2-5-0.3c-1.7-0.1-3.3-0.1-5-0.1c-3.3-0.1-6.7,0-10,0.2c-6.7,0.4-13.3,1.4-19.9,2.7
			c-6.6,1.2-13.3,2.7-20.1,3.4c-6.8,0.8-13.6,0.8-20.4,0.4c-6.8-0.4-13.5-1-20.2-2.1c-6.7-1-13.4-2.3-20-4
			c-6.6-1.8-13.2-3.8-19.5-6.7c-0.6-0.2-0.8-0.9-0.6-1.5C117.5,283.5,117.8,283.3,118.1,283.2z"/>
	</g>
	<g>
		<path d="M125.7,339c5.5-3,11.3-5.1,17.1-6.9c5.9-1.7,11.8-3,17.8-3.9c6-0.9,12.1-1.4,18.3-1.4c6.2,0,12.4,0.6,18.2,1.9
			c5.9,1.3,11.5,3.1,17.2,4.7c5.7,1.6,11.5,2.9,17.3,3.5c2.9,0.3,5.8,0.5,8.8,0.5c1.5,0,2.9,0,4.4-0.1c1.5,0,2.9-0.2,4.4-0.3
			c5.8-0.5,11.5-1.8,17.4-3c3-0.6,6-1.3,8.9-1.8l4.5-0.8c1.5-0.2,3-0.4,4.5-0.6c6-0.7,12-1,17.9-1.3c11.8-0.6,24-1.1,36.1,0.3
			c6.1,0.7,12.1,1.7,18,3c5.9,1.3,11.8,2.9,17.6,4.8c5.8,1.9,11.5,4,17,6.5c5.5,2.5,11,5.3,16.2,8.7c0.5,0.3,0.6,1,0.3,1.5
			c-0.2,0.3-0.5,0.5-0.9,0.5c-6.2,0.2-12.1,0-18.1-0.2c-5.9-0.2-11.8-0.5-17.6-0.7l-17.3-0.9c-5.8-0.3-11.5-0.6-17.2-0.9
			c-11.4-0.6-22.8-1.8-34.5-2.8c-5.9-0.5-11.7-0.9-17.5-1.7c-2.9-0.3-5.8-0.7-8.7-1.2c-2.9-0.4-5.8-0.8-8.7-1.1
			c-5.8-0.7-11.9-1.1-17.9-1.4c-6-0.3-11.9-0.6-17.9-0.4c-5.9,0.1-11.9,0.7-18,1.3c-6,0.6-12.1,1.2-18,1.2c-5.9,0.1-11.4-0.2-17-0.6
			c-5.6-0.4-11.3-0.6-17-1c-5.8-0.3-11.5-0.7-17.4-1.3c-5.9-0.6-11.8-1.1-17.9-2.2c-0.6-0.1-1-0.7-0.9-1.3
			C125.2,339.4,125.4,339.1,125.7,339z"/>
	</g>
	<g>
		<path d="M75.2,395.8c6.3-0.8,12.3-1,18.2-1.4l17.5-1c5.8-0.4,11.5-0.7,17.1-1.2c2.8-0.2,5.6-0.6,8.5-0.8c2.9-0.2,5.9-0.4,9-0.4
			c6.2-0.1,12.6,0.7,18.7,1.6c3.1,0.5,6.1,0.9,9.2,1.3c3.1,0.4,6.2,0.9,9.2,1.2c6,0.7,12,0.9,18,0.9c6,0,12.1-0.6,18.1-1.2
			c3-0.3,6-0.7,9-0.9c3-0.3,6-0.6,9-0.8c6-0.4,11.9-0.4,17.9-0.5l8.9-0.1c2.9-0.1,5.9-0.3,8.8-0.4c5.8-0.3,11.6-0.6,17.4-0.8
			c11.8-0.4,24.4-0.1,36.6,1.4c3.1,0.4,6.1,0.8,9.1,1.3c3,0.6,6,1.2,9.1,1.9c6,1.4,12,2.9,17.9,4.9c0.6,0.2,0.9,0.8,0.7,1.4
			c-0.1,0.4-0.4,0.6-0.7,0.7l0,0c-6.1,1.6-12.1,2.8-18.1,3.7c-3,0.5-6,0.9-8.9,1.3l-8.9,1.3c-5.9,0.8-11.7,1.6-17.6,2.3
			c-5.8,0.8-11.7,1.5-17.8,2c-6.1,0.5-12.4,0.6-18.5,0.4c-3.1-0.1-6.2-0.3-9.2-0.5l-9.1-1.1c-6-0.7-12.1-1.4-18.1-2.5
			c-3-0.5-6-1.1-9-1.8c-3-0.6-6-1.3-9-1.9c-6-1.3-11.9-2.5-17.9-3.3c-1.5-0.2-3-0.4-4.5-0.5c-1.5-0.2-3-0.3-4.5-0.4
			c-3-0.2-6-0.3-9-0.3c-3,0-5.9,0.2-8.8,0.6c-2.9,0.4-5.9,1-8.8,1.6c-5.8,1.3-11.4,2.9-17.2,4.2c-2.9,0.7-5.8,1.3-8.9,1.7
			c-3.1,0.4-6.3,0.6-9.5,0.7c-6.4,0.1-12.7-0.2-18.9-1.1c-6.2-0.9-12.4-2.3-18.3-4.2c-6-2-11.8-4.4-17.2-7.7c-0.5-0.3-0.7-1-0.4-1.5
			C74.6,396,74.9,395.8,75.2,395.8L75.2,395.8z"/>
	</g>
</g>
</svg>
